{
  "summary": "Call germline SNPs and indels via local re-assembly of haplotypes",
  "arguments": [
    {
      "summary": "Minimum probability for a locus to be considered active.",
      "name": "--active-probability-threshold",
      "synonyms": "NA",
      "type": "double",
      "required": "no",
      "fulltext": "",
      "defaultValue": "0.002",
      "minValue": "-Infinity",
      "maxValue": "Infinity",
      "minRecValue": "NA",
      "maxRecValue": "NA",
      "kind": "advanced",
      "options": []
    },
    {
      "summary": "Output the raw activity profile results in IGV format",
      "name": "--activity-profile-out",
      "synonyms": "NA",
      "type": "String",
      "required": "no",
      "fulltext": "If provided, this walker will write out its activity profile (per bp probabilities of being active)\n to this file in the IGV formatted TAB deliminated output:\n\n http://www.broadinstitute.org/software/igv/IGV\n\n Intended to make debugging the activity profile calculations easier",
      "defaultValue": "null",
      "minValue": "NA",
      "maxValue": "NA",
      "minRecValue": "NA",
      "maxRecValue": "NA",
      "kind": "optional",
      "options": []
    },
    {
      "summary": "Use Mutect2\u0027s adaptive graph pruning algorithm",
      "name": "--adaptive-pruning",
      "synonyms": "NA",
      "type": "boolean",
      "required": "no",
      "fulltext": "A single edge multiplicity cutoff for pruning doesn\u0027t work in samples with variable depths, for example exomes\n and RNA.  This parameter enables the probabilistic algorithm for pruning the assembly graph that considers the\n likelihood that each chain in the graph comes from real variation.",
      "defaultValue": "false",
      "minValue": "NA",
      "maxValue": "NA",
      "minRecValue": "NA",
      "maxRecValue": "NA",
      "kind": "advanced",
      "options": []
    },
    {
      "summary": "Initial base error rate estimate for adaptive pruning",
      "name": "--adaptive-pruning-initial-error-rate",
      "synonyms": "NA",
      "type": "double",
      "required": "no",
      "fulltext": "Initial base error rate guess for the probabilistic adaptive pruning model.  Results are not very sensitive to this\n parameter because it is only a starting point from which the algorithm discovers the true error rate.",
      "defaultValue": "0.001",
      "minValue": "-Infinity",
      "maxValue": "Infinity",
      "minRecValue": "NA",
      "maxRecValue": "NA",
      "kind": "advanced",
      "options": []
    },
    {
      "summary": "If true, adds a PG tag to created SAM/BAM/CRAM files.",
      "name": "--add-output-sam-program-record",
      "synonyms": "-add-output-sam-program-record",
      "type": "boolean",
      "required": "no",
      "fulltext": "",
      "defaultValue": "true",
      "minValue": "NA",
      "maxValue": "NA",
      "minRecValue": "NA",
      "maxRecValue": "NA",
      "kind": "common",
      "options": []
    },
    {
      "summary": "If true, adds a command line header line to created VCF files.",
      "name": "--add-output-vcf-command-line",
      "synonyms": "-add-output-vcf-command-line",
      "type": "boolean",
      "required": "no",
      "fulltext": "",
      "defaultValue": "true",
      "minValue": "NA",
      "maxValue": "NA",
      "minRecValue": "NA",
      "maxRecValue": "NA",
      "kind": "common",
      "options": []
    },
    {
      "summary": "Annotate all sites with PLs",
      "name": "--all-site-pls",
      "synonyms": "NA",
      "type": "boolean",
      "required": "no",
      "fulltext": "Advanced, experimental argument: if SNP likelihood model is specified, and if EMIT_ALL_SITES output mode is set, when we set this argument then we will also emit PLs at all sites.\n This will give a measure of reference confidence and a measure of which alt alleles are more plausible (if any).\n WARNINGS:\n - This feature will inflate VCF file size considerably.\n - All SNP ALT alleles will be emitted with corresponding 10 PL values.\n - An error will be emitted if EMIT_ALL_SITES is not set, or if anything other than diploid SNP model is used",
      "defaultValue": "false",
      "minValue": "NA",
      "maxValue": "NA",
      "minRecValue": "NA",
      "maxRecValue": "NA",
      "kind": "advanced",
      "options": []
    },
    {
      "summary": "The set of alleles at which to genotype when --genotyping-mode is GENOTYPE_GIVEN_ALLELES",
      "name": "--alleles",
      "synonyms": "NA",
      "type": "FeatureInput[VariantContext]",
      "required": "no",
      "fulltext": "When the caller is put into GENOTYPE_GIVEN_ALLELES mode it will genotype the samples using only the alleles provide in this rod binding",
      "defaultValue": "null",
      "minValue": "NA",
      "maxValue": "NA",
      "minRecValue": "NA",
      "maxRecValue": "NA",
      "kind": "optional",
      "options": []
    },
    {
      "summary": "Allow graphs that have non-unique kmers in the reference",
      "name": "--allow-non-unique-kmers-in-ref",
      "synonyms": "NA",
      "type": "boolean",
      "required": "no",
      "fulltext": "By default, the program does not allow processing of reference sections that contain non-unique kmers. Disabling\n this check may cause problems in the assembly graph.",
      "defaultValue": "false",
      "minValue": "NA",
      "maxValue": "NA",
      "minRecValue": "NA",
      "maxRecValue": "NA",
      "kind": "advanced",
      "options": []
    },
    {
      "summary": "If provided, we will annotate records with the number of alternate alleles that were discovered (but not necessarily genotyped) at a given site",
      "name": "--annotate-with-num-discovered-alleles",
      "synonyms": "NA",
      "type": "boolean",
      "required": "no",
      "fulltext": "Depending on the value of the --max_alternate_alleles argument, we may genotype only a fraction of the alleles being sent on for genotyping.\n Using this argument instructs the genotyper to annotate (in the INFO field) the number of alternate alleles that were originally discovered at the site.",
      "defaultValue": "false",
      "minValue": "NA",
      "maxValue": "NA",
      "minRecValue": "NA",
      "maxRecValue": "NA",
      "kind": "optional",
      "options": []
    },
    {
      "summary": "One or more specific annotations to add to variant calls",
      "name": "--annotation",
      "synonyms": "-A",
      "type": "List[String]",
      "required": "no",
      "fulltext": "Which annotations to include in variant calls in the output. These supplement annotations provided by annotation groups.",
      "defaultValue": "[]",
      "minValue": "NA",
      "maxValue": "NA",
      "minRecValue": "NA",
      "maxRecValue": "NA",
      "kind": "optional",
      "options": []
    },
    {
      "summary": "One or more groups of annotations to apply to variant calls",
      "name": "--annotation-group",
      "synonyms": "-G",
      "type": "List[String]",
      "required": "no",
      "fulltext": "Which groups of annotations to add to the output variant calls.\n Any requirements that are not met (e.g. failing to provide a pedigree file for a pedigree-based annotation) may cause the run to fail.",
      "defaultValue": "[]",
      "minValue": "NA",
      "maxValue": "NA",
      "minRecValue": "NA",
      "maxRecValue": "NA",
      "kind": "optional",
      "options": []
    },
    {
      "summary": "One or more specific annotations to exclude from variant calls",
      "name": "--annotations-to-exclude",
      "synonyms": "-AX",
      "type": "List[String]",
      "required": "no",
      "fulltext": "Which annotations to exclude from output in the variant calls.  Note that this argument has higher priority than the\n -A or -G arguments, so these annotations will be excluded even if they are explicitly included with the other\n options.",
      "defaultValue": "[]",
      "minValue": "NA",
      "maxValue": "NA",
      "minRecValue": "NA",
      "maxRecValue": "NA",
      "kind": "optional",
      "options": []
    },
    {
      "summary": "read one or more arguments files and add them to the command line",
      "name": "--arguments_file",
      "synonyms": "NA",
      "type": "List[File]",
      "required": "no",
      "fulltext": "",
      "defaultValue": "[]",
      "minValue": "NA",
      "maxValue": "NA",
      "minRecValue": "NA",
      "maxRecValue": "NA",
      "kind": "optional",
      "options": []
    },
    {
      "summary": "Output the assembly region to this IGV formatted file",
      "name": "--assembly-region-out",
      "synonyms": "NA",
      "type": "String",
      "required": "no",
      "fulltext": "If provided, this walker will write out its assembly regions\n to this file in the IGV formatted TAB-delimited output:\n\n http://www.broadinstitute.org/software/igv/IGV\n\n Intended to make debugging the active region calculations easier",
      "defaultValue": "null",
      "minValue": "NA",
      "maxValue": "NA",
      "minRecValue": "NA",
      "maxRecValue": "NA",
      "kind": "optional",
      "options": []
    },
    {
      "summary": "Number of additional bases of context to include around each assembly region",
      "name": "--assembly-region-padding",
      "synonyms": "NA",
      "type": "int",
      "required": "no",
      "fulltext": "",
      "defaultValue": "100",
      "minValue": "-Infinity",
      "maxValue": "Infinity",
      "minRecValue": "NA",
      "maxRecValue": "NA",
      "kind": "advanced",
      "options": []
    },
    {
      "summary": "File to which assembled haplotypes should be written",
      "name": "--bam-output",
      "synonyms": "-bamout",
      "type": "String",
      "required": "no",
      "fulltext": "The assembled haplotypes and locally realigned reads will be written as BAM to this file if requested.  Really\n for debugging purposes only. Note that the output here does not include uninformative reads so that not every\n input read is emitted to the bam.\n\n Turning on this mode may result in serious performance cost for the caller.  It\u0027s really only appropriate to\n use in specific areas where you want to better understand why the caller is making specific calls.\n\n The reads are written out containing an \"HC\" tag (integer) that encodes which haplotype each read best matches\n according to the haplotype caller\u0027s likelihood calculation.  The use of this tag is primarily intended\n to allow good coloring of reads in IGV.  Simply go to \"Color Alignments By \u003e Tag\" and enter \"HC\" to more\n easily see which reads go with these haplotype.\n\n Note that the haplotypes (called or all, depending on mode) are emitted as single reads covering the entire\n active region, coming from sample \"HC\" and a special read group called \"ArtificialHaplotype\". This will increase the\n pileup depth compared to what would be expected from the reads only, especially in complex regions.\n\n Note also that only reads that are actually informative about the haplotypes are emitted.  By informative we mean\n that there\u0027s a meaningful difference in the likelihood of the read coming from one haplotype compared to\n its next best haplotype.\n\n If multiple BAMs are passed as input to the tool (as is common for M2), then they will be combined in the bamout\n output and tagged with the appropriate sample names.\n\n The best way to visualize the output of this mode is with IGV.  Tell IGV to color the alignments by tag,\n and give it the \"HC\" tag, so you can see which reads support each haplotype.  Finally, you can tell IGV\n to group by sample, which will separate the potential haplotypes from the reads.  All of this can be seen in\n \u003ca href\u003d\"https://www.dropbox.com/s/xvy7sbxpf13x5bp/haplotypecaller%20bamout%20for%20docs.png\"\u003ethis screenshot\u003c/a\u003e",
      "defaultValue": "null",
      "minValue": "NA",
      "maxValue": "NA",
      "minRecValue": "NA",
      "maxRecValue": "NA",
      "kind": "advanced",
      "options": []
    },
    {
      "summary": "Which haplotypes should be written to the BAM",
      "name": "--bam-writer-type",
      "synonyms": "NA",
      "type": "WriterType",
      "required": "no",
      "fulltext": "The type of BAM output we want to see. This determines whether HC will write out all of the haplotypes it\n considered (top 128 max) or just the ones that were selected as alleles and assigned to samples.",
      "defaultValue": "CALLED_HAPLOTYPES",
      "minValue": "NA",
      "maxValue": "NA",
      "minRecValue": "NA",
      "maxRecValue": "NA",
      "kind": "advanced",
      "options": [
        {
          "summary": "A mode that\u0027s for method developers.  Writes out all of the possible\n haplotypes considered, as well as reads aligned to each",
          "name": "ALL_POSSIBLE_HAPLOTYPES"
        },
        {
          "summary": "A mode for users.  Writes out the reads aligned only to the called\n haplotypes.  Useful to understand why the caller is calling what it is",
          "name": "CALLED_HAPLOTYPES"
        }
      ]
    },
    {
      "summary": "Base qualities below this threshold will be reduced to the minimum (6)",
      "name": "--base-quality-score-threshold",
      "synonyms": "NA",
      "type": "byte",
      "required": "no",
      "fulltext": "Bases with a quality below this threshold will reduced to the minimum usable qualiy score (6).",
      "defaultValue": "18",
      "minValue": "-Infinity",
      "maxValue": "Infinity",
      "minRecValue": "NA",
      "maxRecValue": "NA",
      "kind": "optional",
      "options": []
    },
    {
      "summary": "Size of the cloud-only prefetch buffer (in MB; 0 to disable). Defaults to cloudPrefetchBuffer if unset.",
      "name": "--cloud-index-prefetch-buffer",
      "synonyms": "-CIPB",
      "type": "int",
      "required": "no",
      "fulltext": "",
      "defaultValue": "-1",
      "minValue": "-Infinity",
      "maxValue": "Infinity",
      "minRecValue": "NA",
      "maxRecValue": "NA",
      "kind": "optional",
      "options": []
    },
    {
      "summary": "Size of the cloud-only prefetch buffer (in MB; 0 to disable).",
      "name": "--cloud-prefetch-buffer",
      "synonyms": "-CPB",
      "type": "int",
      "required": "no",
      "fulltext": "",
      "defaultValue": "40",
      "minValue": "-Infinity",
      "maxValue": "Infinity",
      "minRecValue": "NA",
      "maxRecValue": "NA",
      "kind": "optional",
      "options": []
    },
    {
      "summary": "Comparison VCF file(s)",
      "name": "--comp",
      "synonyms": "-comp",
      "type": "List[FeatureInput[VariantContext]]",
      "required": "no",
      "fulltext": "If a call overlaps with a record from the provided comp track, the INFO field will be annotated\n as such in the output with the track name (e.g. -comp:FOO will have \u0027FOO\u0027 in the INFO field). Records that are\n filtered in the comp track will be ignored. Note that \u0027dbSNP\u0027 has been special-cased (see the --dbsnp argument).",
      "defaultValue": "[]",
      "minValue": "NA",
      "maxValue": "NA",
      "minRecValue": "NA",
      "maxRecValue": "NA",
      "kind": "advanced",
      "options": []
    },
    {
      "summary": "1000G consensus mode",
      "name": "--consensus",
      "synonyms": "NA",
      "type": "boolean",
      "required": "no",
      "fulltext": "This argument is specifically intended for 1000G consensus analysis mode. Setting this flag will inject all\n provided alleles to the assembly graph but will not forcibly genotype all of them.",
      "defaultValue": "false",
      "minValue": "NA",
      "maxValue": "NA",
      "minRecValue": "NA",
      "maxRecValue": "NA",
      "kind": "advanced",
      "options": []
    },
    {
      "summary": "Tab-separated File containing fraction of contamination in sequencing data (per sample) to aggressively remove. Format should be \"\u003cSampleID\u003e\u003cTAB\u003e\u003cContamination\u003e\" (Contamination is double) per line; No header.",
      "name": "--contamination-fraction-per-sample-file",
      "synonyms": "-contamination-file",
      "type": "File",
      "required": "no",
      "fulltext": "This argument specifies a file with two columns \"sample\" and \"contamination\" specifying the contamination level for those samples.\n  Samples that do not appear in this file will be processed with CONTAMINATION_FRACTION.",
      "defaultValue": "null",
      "minValue": "NA",
      "maxValue": "NA",
      "minRecValue": "NA",
      "maxRecValue": "NA",
      "kind": "advanced",
      "options": []
    },
    {
      "summary": "Fraction of contamination in sequencing data (for all samples) to aggressively remove",
      "name": "--contamination-fraction-to-filter",
      "synonyms": "-contamination",
      "type": "double",
      "required": "no",
      "fulltext": "If this fraction is greater is than zero, the caller will aggressively attempt to remove contamination through biased down-sampling of reads.\n Basically, it will ignore the contamination fraction of reads for each alternate allele.  So if the pileup contains N total bases, then we\n will try to remove (N * contamination fraction) bases for each alternate allele.",
      "defaultValue": "0.0",
      "minValue": "-Infinity",
      "maxValue": "Infinity",
      "minRecValue": "NA",
      "maxRecValue": "NA",
      "kind": "optional",
      "options": []
    },
    {
      "summary": "Undocumented option",
      "name": "--correct-overlapping-quality",
      "synonyms": "NA",
      "type": "boolean",
      "required": "no",
      "fulltext": "",
      "defaultValue": "false",
      "minValue": "NA",
      "maxValue": "NA",
      "minRecValue": "NA",
      "maxRecValue": "NA",
      "kind": "optional",
      "options": []
    },
    {
      "summary": "If true, create a BAM/CRAM index when writing a coordinate-sorted BAM/CRAM file.",
      "name": "--create-output-bam-index",
      "synonyms": "-OBI",
      "type": "boolean",
      "required": "no",
      "fulltext": "",
      "defaultValue": "true",
      "minValue": "NA",
      "maxValue": "NA",
      "minRecValue": "NA",
      "maxRecValue": "NA",
      "kind": "common",
      "options": []
    },
    {
      "summary": "If true, create a MD5 digest for any BAM/SAM/CRAM file created",
      "name": "--create-output-bam-md5",
      "synonyms": "-OBM",
      "type": "boolean",
      "required": "no",
      "fulltext": "",
      "defaultValue": "false",
      "minValue": "NA",
      "maxValue": "NA",
      "minRecValue": "NA",
      "maxRecValue": "NA",
      "kind": "common",
      "options": []
    },
    {
      "summary": "If true, create a VCF index when writing a coordinate-sorted VCF file.",
      "name": "--create-output-variant-index",
      "synonyms": "-OVI",
      "type": "boolean",
      "required": "no",
      "fulltext": "",
      "defaultValue": "true",
      "minValue": "NA",
      "maxValue": "NA",
      "minRecValue": "NA",
      "maxRecValue": "NA",
      "kind": "common",
      "options": []
    },
    {
      "summary": "If true, create a a MD5 digest any VCF file created.",
      "name": "--create-output-variant-md5",
      "synonyms": "-OVM",
      "type": "boolean",
      "required": "no",
      "fulltext": "",
      "defaultValue": "false",
      "minValue": "NA",
      "maxValue": "NA",
      "minRecValue": "NA",
      "maxRecValue": "NA",
      "kind": "common",
      "options": []
    },
    {
      "summary": "dbSNP file",
      "name": "--dbsnp",
      "synonyms": "-D",
      "type": "FeatureInput[VariantContext]",
      "required": "no",
      "fulltext": "A dbSNP VCF file.",
      "defaultValue": "null",
      "minValue": "NA",
      "maxValue": "NA",
      "minRecValue": "NA",
      "maxRecValue": "NA",
      "kind": "optional",
      "options": []
    },
    {
      "summary": "Print out verbose debug information about each assembly region",
      "name": "--debug-assembly",
      "synonyms": "-debug",
      "type": "boolean",
      "required": "no",
      "fulltext": "",
      "defaultValue": "false",
      "minValue": "NA",
      "maxValue": "NA",
      "minRecValue": "NA",
      "maxRecValue": "NA",
      "kind": "advanced",
      "options": []
    },
    {
      "summary": "If true, don\u0027t cache bam indexes, this will reduce memory requirements but may harm performance if many intervals are specified.  Caching is automatically disabled if there are no intervals specified.",
      "name": "--disable-bam-index-caching",
      "synonyms": "-DBIC",
      "type": "boolean",
      "required": "no",
      "fulltext": "",
      "defaultValue": "false",
      "minValue": "NA",
      "maxValue": "NA",
      "minRecValue": "NA",
      "maxRecValue": "NA",
      "kind": "optional",
      "options": []
    },
    {
      "summary": "Don\u0027t skip calculations in ActiveRegions with no variants",
      "name": "--disable-optimizations",
      "synonyms": "NA",
      "type": "boolean",
      "required": "no",
      "fulltext": "If set, certain \"early exit\" optimizations in HaplotypeCaller, which aim to save compute and time by skipping\n calculations if an ActiveRegion is determined to contain no variants, will be disabled. This is most likely to be useful if\n you\u0027re using the -bamout argument to examine the placement of reads following reassembly and are interested in seeing the mapping of\n reads in regions with no variations. Setting the --force-active and --dont-trim-active-regions flags may also be necessary.",
      "defaultValue": "false",
      "minValue": "NA",
      "maxValue": "NA",
      "minRecValue": "NA",
      "maxRecValue": "NA",
      "kind": "advanced",
      "options": []
    },
    {
      "summary": "Read filters to be disabled before analysis",
      "name": "--disable-read-filter",
      "synonyms": "-DF",
      "type": "List[String]",
      "required": "no",
      "fulltext": "",
      "defaultValue": "[]",
      "minValue": "NA",
      "maxValue": "NA",
      "minRecValue": "NA",
      "maxRecValue": "NA",
      "kind": "common",
      "options": []
    },
    {
      "summary": "If specified, do not check the sequence dictionaries from our inputs for compatibility. Use at your own risk!",
      "name": "--disable-sequence-dictionary-validation",
      "synonyms": "-disable-sequence-dictionary-validation",
      "type": "boolean",
      "required": "no",
      "fulltext": "",
      "defaultValue": "false",
      "minValue": "NA",
      "maxValue": "NA",
      "minRecValue": "NA",
      "maxRecValue": "NA",
      "kind": "optional",
      "options": []
    },
    {
      "summary": "Disable all tool default annotations",
      "name": "--disable-tool-default-annotations",
      "synonyms": "-disable-tool-default-annotations",
      "type": "boolean",
      "required": "no",
      "fulltext": "Hook allowing for the user to remove default annotations from the tool",
      "defaultValue": "false",
      "minValue": "NA",
      "maxValue": "NA",
      "minRecValue": "NA",
      "maxRecValue": "NA",
      "kind": "advanced",
      "options": []
    },
    {
      "summary": "Disable all tool default read filters (WARNING: many tools will not function correctly without their default read filters on)",
      "name": "--disable-tool-default-read-filters",
      "synonyms": "-disable-tool-default-read-filters",
      "type": "boolean",
      "required": "no",
      "fulltext": "",
      "defaultValue": "false",
      "minValue": "NA",
      "maxValue": "NA",
      "minRecValue": "NA",
      "maxRecValue": "NA",
      "kind": "common",
      "options": []
    },
    {
      "summary": "Disable physical phasing",
      "name": "--do-not-run-physical-phasing",
      "synonyms": "NA",
      "type": "boolean",
      "required": "no",
      "fulltext": "As of GATK 3.3, HaplotypeCaller outputs physical (read-based) information (see version 3.3 release notes and documentation for details). This argument disables that behavior.",
      "defaultValue": "false",
      "minValue": "NA",
      "maxValue": "NA",
      "minRecValue": "NA",
      "maxRecValue": "NA",
      "kind": "advanced",
      "options": []
    },
    {
      "summary": "Disable iterating over kmer sizes when graph cycles are detected",
      "name": "--dont-increase-kmer-sizes-for-cycles",
      "synonyms": "NA",
      "type": "boolean",
      "required": "no",
      "fulltext": "When graph cycles are detected, the normal behavior is to increase kmer sizes iteratively until the cycles are\n resolved. Disabling this behavior may cause the program to give up on assembling the ActiveRegion.",
      "defaultValue": "false",
      "minValue": "NA",
      "maxValue": "NA",
      "minRecValue": "NA",
      "maxRecValue": "NA",
      "kind": "advanced",
      "options": []
    },
    {
      "summary": "If specified, we will not trim down the active region from the full region (active + extension) to just the active interval for genotyping",
      "name": "--dont-trim-active-regions",
      "synonyms": "NA",
      "type": "boolean",
      "required": "no",
      "fulltext": "",
      "defaultValue": "false",
      "minValue": "NA",
      "maxValue": "NA",
      "minRecValue": "NA",
      "maxRecValue": "NA",
      "kind": "advanced",
      "options": []
    },
    {
      "summary": "Do not analyze soft clipped bases in the reads",
      "name": "--dont-use-soft-clipped-bases",
      "synonyms": "NA",
      "type": "boolean",
      "required": "no",
      "fulltext": "",
      "defaultValue": "false",
      "minValue": "NA",
      "maxValue": "NA",
      "minRecValue": "NA",
      "maxRecValue": "NA",
      "kind": "advanced",
      "options": []
    },
    {
      "summary": "(BETA feature) Mode for emitting reference confidence scores",
      "name": "--emit-ref-confidence",
      "synonyms": "-ERC",
      "type": "ReferenceConfidenceMode",
      "required": "no",
      "fulltext": "(BETA feature) The reference confidence mode makes it possible to emit a per-bp or summarized confidence estimate for a site being strictly homozygous-reference.\n This is similar to the HaplotypeCaller reference confidence/GVCF mode. See https://software.broadinstitute.org/gatk/documentation/article.php?id\u003d4017 for information about GVCFs.",
      "defaultValue": "NONE",
      "minValue": "NA",
      "maxValue": "NA",
      "minRecValue": "NA",
      "maxRecValue": "NA",
      "kind": "advanced",
      "options": [
        {
          "summary": "Regular calling without emitting reference confidence calls.",
          "name": "NONE"
        },
        {
          "summary": "Reference model emitted site by site.",
          "name": "BP_RESOLUTION"
        },
        {
          "summary": "Reference model emitted with condensed non-variant blocks, i.e. the GVCF format.",
          "name": "GVCF"
        }
      ]
    },
    {
      "summary": "Use all possible annotations (not for the faint of heart)",
      "name": "--enable-all-annotations",
      "synonyms": "NA",
      "type": "boolean",
      "required": "no",
      "fulltext": "You can use the -AX argument in combination with this one to exclude specific annotations. Note that some\n annotations may not be actually applied if they are not applicable to the data provided or if they are\n unavailable to the tool (e.g. there are several annotations that are currently not hooked up to\n HaplotypeCaller). At present no error or warning message will be provided, the annotation will simply be\n skipped silently. You can check the output VCF header to see which annotations were activated and thus might be applied (although\n this does not guarantee that the annotation was applied to all records in the VCF, since some annotations have\n additional requirements, e.g. minimum number of samples or heterozygous sites only -- see the documentation\n for individual annotations\u0027 requirements).",
      "defaultValue": "false",
      "minValue": "NA",
      "maxValue": "NA",
      "minRecValue": "NA",
      "maxRecValue": "NA",
      "kind": "advanced",
      "options": []
    },
    {
      "summary": "One or more genomic intervals to exclude from processing",
      "name": "--exclude-intervals",
      "synonyms": "-XL",
      "type": "List[String]",
      "required": "no",
      "fulltext": "Use this argument to exclude certain parts of the genome from the analysis (like -L, but the opposite).\n This argument can be specified multiple times. You can use samtools-style intervals either explicitly on the\n command line (e.g. -XL 1 or -XL 1:100-200) or by loading in a file containing a list of intervals\n (e.g. -XL myFile.intervals).",
      "defaultValue": "[]",
      "minValue": "NA",
      "maxValue": "NA",
      "minRecValue": "NA",
      "maxRecValue": "NA",
      "kind": "common",
      "options": []
    },
    {
      "summary": "If provided, all regions will be marked as active",
      "name": "--force-active",
      "synonyms": "NA",
      "type": "boolean",
      "required": "no",
      "fulltext": "",
      "defaultValue": "false",
      "minValue": "NA",
      "maxValue": "NA",
      "minRecValue": "NA",
      "maxRecValue": "NA",
      "kind": "advanced",
      "options": []
    },
    {
      "summary": "Samples representing the population \"founders\"",
      "name": "--founder-id",
      "synonyms": "-founder-id",
      "type": "List[String]",
      "required": "no",
      "fulltext": "",
      "defaultValue": "[]",
      "minValue": "NA",
      "maxValue": "NA",
      "minRecValue": "NA",
      "maxRecValue": "NA",
      "kind": "optional",
      "options": []
    },
    {
      "summary": "A configuration file to use with the GATK.",
      "name": "--gatk-config-file",
      "synonyms": "NA",
      "type": "String",
      "required": "no",
      "fulltext": "",
      "defaultValue": "null",
      "minValue": "NA",
      "maxValue": "NA",
      "minRecValue": "NA",
      "maxRecValue": "NA",
      "kind": "common",
      "options": []
    },
    {
      "summary": "If the GCS bucket channel errors out, how many times it will attempt to re-initiate the connection",
      "name": "--gcs-max-retries",
      "synonyms": "-gcs-retries",
      "type": "int",
      "required": "no",
      "fulltext": "",
      "defaultValue": "20",
      "minValue": "-Infinity",
      "maxValue": "Infinity",
      "minRecValue": "NA",
      "maxRecValue": "NA",
      "kind": "optional",
      "options": []
    },
    {
      "summary": "Project to bill when accessing \"requester pays\" buckets. If unset, these buckets cannot be accessed.",
      "name": "--gcs-project-for-requester-pays",
      "synonyms": "NA",
      "type": "String",
      "required": "no",
      "fulltext": "",
      "defaultValue": "\"\"",
      "minValue": "NA",
      "maxValue": "NA",
      "minRecValue": "NA",
      "maxRecValue": "NA",
      "kind": "optional",
      "options": []
    },
    {
      "summary": "Whether to genotype all given alleles, even filtered ones, --genotyping-mode is GENOTYPE_GIVEN_ALLELES",
      "name": "--genotype-filtered-alleles",
      "synonyms": "NA",
      "type": "boolean",
      "required": "no",
      "fulltext": "When set to true an when in GENOTYPE_GIVEN_ALLELES mode all given alleles, even filtered ones, are genotyped",
      "defaultValue": "false",
      "minValue": "NA",
      "maxValue": "NA",
      "minRecValue": "NA",
      "maxRecValue": "NA",
      "kind": "advanced",
      "options": []
    },
    {
      "summary": "Specifies how to determine the alternate alleles to use for genotyping",
      "name": "--genotyping-mode",
      "synonyms": "NA",
      "type": "GenotypingOutputMode",
      "required": "no",
      "fulltext": "",
      "defaultValue": "DISCOVERY",
      "minValue": "NA",
      "maxValue": "NA",
      "minRecValue": "NA",
      "maxRecValue": "NA",
      "kind": "optional",
      "options": [
        {
          "summary": "The genotyper will choose the most likely alternate allele",
          "name": "DISCOVERY"
        },
        {
          "summary": "Only the alleles passed by the user should be considered.",
          "name": "GENOTYPE_GIVEN_ALLELES"
        }
      ]
    },
    {
      "summary": "Write debug assembly graph information to this file",
      "name": "--graph-output",
      "synonyms": "-graph",
      "type": "String",
      "required": "no",
      "fulltext": "This argument is meant for debugging and is not immediately useful for normal analysis use.",
      "defaultValue": "null",
      "minValue": "NA",
      "maxValue": "NA",
      "minRecValue": "NA",
      "maxRecValue": "NA",
      "kind": "optional",
      "options": []
    },
    {
      "summary": "Exclusive upper bounds for reference confidence GQ bands (must be in [1, 100] and specified in increasing order)",
      "name": "--gvcf-gq-bands",
      "synonyms": "-GQB",
      "type": "List[Integer]",
      "required": "no",
      "fulltext": "When HC is run in reference confidence mode with banding compression enabled (-ERC GVCF), homozygous-reference\n sites are compressed into bands of similar genotype quality (GQ) that are emitted as a single VCF record. See\n the FAQ documentation for more details about the GVCF format.\n\n This argument allows you to set the GQ bands. HC expects a list of strictly increasing GQ values\n that will act as exclusive upper bounds for the GQ bands. To pass multiple values,\n you provide them one by one with the argument, as in `-GQB 10 -GQB 20 -GQB 30` and so on\n (this would set the GQ bands to be `[0, 10), [10, 20), [20, 30)` and so on, for example).\n Note that GQ values are capped at 99 in the GATK, so values must be integers in [1, 100].\n If the last value is strictly less than 100, the last GQ band will start at that value (inclusive)\n and end at 100 (exclusive).",
      "defaultValue": "[1, 2, 3, 4, 5, 6, 7, 8, 9, 10, 11, 12, 13, 14, 15, 16, 17, 18, 19, 20, 21, 22, 23, 24, 25, 26, 27, 28, 29, 30, 31, 32, 33, 34, 35, 36, 37, 38, 39, 40, 41, 42, 43, 44, 45, 46, 47, 48, 49, 50, 51, 52, 53, 54, 55, 56, 57, 58, 59, 60, 70, 80, 90, 99]",
      "minValue": "NA",
      "maxValue": "NA",
      "minRecValue": "NA",
      "maxRecValue": "NA",
      "kind": "advanced",
      "options": []
    },
    {
      "summary": "display the help message",
      "name": "--help",
      "synonyms": "-h",
      "type": "boolean",
      "required": "no",
      "fulltext": "",
      "defaultValue": "false",
      "minValue": "NA",
      "maxValue": "NA",
      "minRecValue": "NA",
      "maxRecValue": "NA",
      "kind": "optional",
      "options": []
    },
    {
      "summary": "Heterozygosity value used to compute prior likelihoods for any locus.  See the GATKDocs for full details on the meaning of this population genetics concept",
      "name": "--heterozygosity",
      "synonyms": "NA",
      "type": "Double",
      "required": "no",
      "fulltext": "The expected heterozygosity value used to compute prior probability that a locus is non-reference.\n\n The default priors are for provided for humans:\n\n het \u003d 1e-3\n\n which means that the probability of N samples being hom-ref at a site is:\n\n 1 - sum_i_2N (het / i)\n\n Note that heterozygosity as used here is the population genetics concept:\n\n http://en.wikipedia.org/wiki/Zygosity#Heterozygosity_in_population_genetics\n\n That is, a hets value of 0.01 implies that two randomly chosen chromosomes from the population of organisms\n would differ from each other (one being A and the other B) at a rate of 1 in 100 bp.\n\n Note that this quantity has nothing to do with the likelihood of any given sample having a heterozygous genotype,\n which in the GATK is purely determined by the probability of the observed data P(D | AB) under the model that there\n may be a AB het genotype.  The posterior probability of this AB genotype would use the het prior, but the GATK\n only uses this posterior probability in determining the prob. that a site is polymorphic.  So changing the\n het parameters only increases the chance that a site will be called non-reference across all samples, but\n doesn\u0027t actually change the output genotype likelihoods at all, as these aren\u0027t posterior probabilities at all.\n\n The quantity that changes whether the GATK considers the possibility of a het genotype at all is the ploidy,\n which determines how many chromosomes each individual in the species carries.",
      "defaultValue": "0.001",
      "minValue": "-Infinity",
      "maxValue": "Infinity",
      "minRecValue": "NA",
      "maxRecValue": "NA",
      "kind": "optional",
      "options": []
    },
    {
      "summary": "Standard deviation of heterozygosity for SNP and indel calling.",
      "name": "--heterozygosity-stdev",
      "synonyms": "NA",
      "type": "double",
      "required": "no",
      "fulltext": "The standard deviation of the distribution of alt allele fractions.  The above heterozygosity parameters give the\n *mean* of this distribution; this parameter gives its spread.",
      "defaultValue": "0.01",
      "minValue": "-Infinity",
      "maxValue": "Infinity",
      "minRecValue": "NA",
      "maxRecValue": "NA",
      "kind": "optional",
      "options": []
    },
    {
      "summary": "Heterozygosity for indel calling.  See the GATKDocs for heterozygosity for full details on the meaning of this population genetics concept",
      "name": "--indel-heterozygosity",
      "synonyms": "NA",
      "type": "double",
      "required": "no",
      "fulltext": "This argument informs the prior probability of having an indel at a site.",
      "defaultValue": "1.25E-4",
      "minValue": "-Infinity",
      "maxValue": "Infinity",
      "minRecValue": "NA",
      "maxRecValue": "NA",
      "kind": "optional",
      "options": []
    },
    {
      "summary": "The size of an indel to check for in the reference model",
      "name": "--indel-size-to-eliminate-in-ref-model",
      "synonyms": "NA",
      "type": "int",
      "required": "no",
      "fulltext": "This parameter determines the maximum size of an indel considered as potentially segregating in the\n reference model.  It is used to eliminate reads from being indel informative at a site, and determines\n by that mechanism the certainty in the reference base.  Conceptually, setting this parameter to\n X means that each informative read is consistent with any indel of size \u003c X being present at a specific\n position in the genome, given its alignment to the reference.",
      "defaultValue": "10",
      "minValue": "-Infinity",
      "maxValue": "Infinity",
      "minRecValue": "NA",
      "maxRecValue": "NA",
      "kind": "advanced",
      "options": []
    },
    {
      "summary": "BAM/SAM/CRAM file containing reads",
      "name": "--input",
      "synonyms": "-I",
      "type": "List[String]",
      "required": "yes",
      "fulltext": "",
      "defaultValue": "[]",
      "minValue": "NA",
      "maxValue": "NA",
      "minRecValue": "NA",
      "maxRecValue": "NA",
      "kind": "required",
      "options": []
    },
    {
      "summary": "Input prior for calls",
      "name": "--input-prior",
      "synonyms": "NA",
      "type": "List[Double]",
      "required": "no",
      "fulltext": "By default, the prior specified with the argument --heterozygosity/-hets is used for variant discovery at a particular locus, using an infinite sites model,\n see e.g. Waterson (1975) or Tajima (1996).\n This model asserts that the probability of having a population of k variant sites in N chromosomes is proportional to theta/k, for 1\u003d1:N\n\n There are instances where using this prior might not be desireable, e.g. for population studies where prior might not be appropriate,\n as for example when the ancestral status of the reference allele is not known.\n By using this argument, user can manually specify priors to be used for calling as a vector for doubles, with the following restriciotns:\n a) User must specify 2N values, where N is the number of samples.\n b) Only diploid calls supported.\n c) Probability values are specified in double format, in linear space.\n d) No negative values allowed.\n e) Values will be added and Pr(AC\u003d0) will be 1-sum, so that they sum up to one.\n f) If user-defined values add to more than one, an error will be produced.\n\n If user wants completely flat priors, then user should specify the same value (\u003d1/(2*N+1)) 2*N times,e.g.\n   --input-prior 0.33 --input-prior 0.33\n for the single-sample diploid case.",
      "defaultValue": "[]",
      "minValue": "NA",
      "maxValue": "NA",
      "minRecValue": "NA",
      "maxRecValue": "NA",
      "kind": "advanced",
      "options": []
    },
    {
      "summary": "Amount of padding (in bp) to add to each interval you are excluding.",
      "name": "--interval-exclusion-padding",
      "synonyms": "-ixp",
      "type": "int",
      "required": "no",
      "fulltext": "Use this to add padding to the intervals specified using -XL. For example, \u0027-XL 1:100\u0027 with a\n padding value of 20 would turn into \u0027-XL 1:80-120\u0027. This is typically used to add padding around targets when\n analyzing exomes.",
      "defaultValue": "0",
      "minValue": "-Infinity",
      "maxValue": "Infinity",
      "minRecValue": "NA",
      "maxRecValue": "NA",
      "kind": "common",
      "options": []
    },
    {
      "summary": "Interval merging rule for abutting intervals",
      "name": "--interval-merging-rule",
      "synonyms": "-imr",
      "type": "IntervalMergingRule",
      "required": "no",
      "fulltext": "By default, the program merges abutting intervals (i.e. intervals that are directly side-by-side but do not\n actually overlap) into a single continuous interval. However you can change this behavior if you want them to be\n treated as separate intervals instead.",
      "defaultValue": "ALL",
      "minValue": "NA",
      "maxValue": "NA",
      "minRecValue": "NA",
      "maxRecValue": "NA",
      "kind": "optional",
      "options": [
        {
          "summary": "",
          "name": "ALL"
        },
        {
          "summary": "",
          "name": "OVERLAPPING_ONLY"
        }
      ]
    },
    {
      "summary": "Amount of padding (in bp) to add to each interval you are including.",
      "name": "--interval-padding",
      "synonyms": "-ip",
      "type": "int",
      "required": "no",
      "fulltext": "Use this to add padding to the intervals specified using -L. For example, \u0027-L 1:100\u0027 with a\n padding value of 20 would turn into \u0027-L 1:80-120\u0027. This is typically used to add padding around targets when\n analyzing exomes.",
      "defaultValue": "0",
      "minValue": "-Infinity",
      "maxValue": "Infinity",
      "minRecValue": "NA",
      "maxRecValue": "NA",
      "kind": "common",
      "options": []
    },
    {
      "summary": "Set merging approach to use for combining interval inputs",
      "name": "--interval-set-rule",
      "synonyms": "-isr",
      "type": "IntervalSetRule",
      "required": "no",
      "fulltext": "By default, the program will take the UNION of all intervals specified using -L and/or -XL. However, you can\n change this setting for -L, for example if you want to take the INTERSECTION of the sets instead. E.g. to\n perform the analysis only on chromosome 1 exomes, you could specify -L exomes.intervals -L 1 --interval-set-rule\n INTERSECTION. However, it is not possible to modify the merging approach for intervals passed using -XL (they will\n always be merged using UNION).\n\n Note that if you specify both -L and -XL, the -XL interval set will be subtracted from the -L interval set.",
      "defaultValue": "UNION",
      "minValue": "NA",
      "maxValue": "NA",
      "minRecValue": "NA",
      "maxRecValue": "NA",
      "kind": "common",
      "options": [
        {
          "summary": "Take the union of all intervals",
          "name": "UNION"
        },
        {
          "summary": "Take the intersection of intervals (the subset that overlaps all intervals specified)",
          "name": "INTERSECTION"
        }
      ]
    },
    {
      "summary": "One or more genomic intervals over which to operate",
      "name": "--intervals",
      "synonyms": "-L",
      "type": "List[String]",
      "required": "no",
      "fulltext": "",
      "defaultValue": "[]",
      "minValue": "NA",
      "maxValue": "NA",
      "minRecValue": "NA",
      "maxRecValue": "NA",
      "kind": "optional",
      "options": []
    },
    {
      "summary": "Kmer size to use in the read threading assembler",
      "name": "--kmer-size",
      "synonyms": "NA",
      "type": "List[Integer]",
      "required": "no",
      "fulltext": "Multiple kmer sizes can be specified, using e.g. `--kmer-size 10 --kmer-size 25`.",
      "defaultValue": "[10, 25]",
      "minValue": "NA",
      "maxValue": "NA",
      "minRecValue": "NA",
      "maxRecValue": "NA",
      "kind": "advanced",
      "options": []
    },
    {
      "summary": "Lenient processing of VCF files",
      "name": "--lenient",
      "synonyms": "-LE",
      "type": "boolean",
      "required": "no",
      "fulltext": "",
      "defaultValue": "false",
      "minValue": "NA",
      "maxValue": "NA",
      "minRecValue": "NA",
      "maxRecValue": "NA",
      "kind": "common",
      "options": []
    },
    {
      "summary": "Maximum number of alternate alleles to genotype",
      "name": "--max-alternate-alleles",
      "synonyms": "NA",
      "type": "int",
      "required": "no",
      "fulltext": "If there are more than this number of alternate alleles presented to the genotyper (either through discovery or GENOTYPE_GIVEN ALLELES),\n then only this many alleles will be used.  Note that genotyping sites with many alternate alleles is both CPU and memory intensive and it\n scales exponentially based on the number of alternate alleles.  Unless there is a good reason to change the default value, we highly recommend\n that you not play around with this parameter.\n\n See also {@link #MAX_GENOTYPE_COUNT}.",
      "defaultValue": "6",
      "minValue": "-Infinity",
      "maxValue": "Infinity",
      "minRecValue": "NA",
      "maxRecValue": "NA",
      "kind": "advanced",
      "options": []
    },
    {
      "summary": "Maximum size of an assembly region",
      "name": "--max-assembly-region-size",
      "synonyms": "NA",
      "type": "int",
      "required": "no",
      "fulltext": "",
      "defaultValue": "300",
      "minValue": "-Infinity",
      "maxValue": "Infinity",
      "minRecValue": "NA",
      "maxRecValue": "NA",
      "kind": "advanced",
      "options": []
    },
    {
      "summary": "Maximum number of genotypes to consider at any site",
      "name": "--max-genotype-count",
      "synonyms": "NA",
      "type": "int",
      "required": "no",
      "fulltext": "If there are more than this number of genotypes at a locus presented to the genotyper, then only this many genotypes will be used.\n The possible genotypes are simply different ways of partitioning alleles given a specific ploidy asumption.\n Therefore, we remove genotypes from consideration by removing alternate alleles that are the least well supported.\n The estimate of allele support is based on the ranking of the candidate haplotypes coming out of the graph building step.\n Note that the reference allele is always kept.\n\n Note that genotyping sites with large genotype counts is both CPU and memory intensive.\n Unless there is a good reason to change the default value, we highly recommend that you not play around with this parameter.\n\n The maximum number of alternative alleles used in the genotyping step will be the lesser of the two:\n 1. the largest number of alt alleles, given ploidy, that yields a genotype count no higher than {@link #MAX_GENOTYPE_COUNT}\n 2. the value of {@link #MAX_ALTERNATE_ALLELES}\n\n See also {@link #MAX_ALTERNATE_ALLELES}.",
      "defaultValue": "1024",
      "minValue": "-Infinity",
      "maxValue": "Infinity",
      "minRecValue": "NA",
      "maxRecValue": "NA",
      "kind": "advanced",
      "options": []
    },
    {
      "summary": "Two or more phased substitutions separated by this distance or less are merged into MNPs. WARNING: When used in GVCF mode, resulting GVCFs cannot be joint-genotyped.",
      "name": "--max-mnp-distance",
      "synonyms": "-mnp-dist",
      "type": "int",
      "required": "no",
      "fulltext": "Two or more phased substitutions separated by this distance or less are merged into MNPs.",
      "defaultValue": "0",
      "minValue": "-Infinity",
      "maxValue": "Infinity",
      "minRecValue": "NA",
      "maxRecValue": "NA",
      "kind": "advanced",
      "options": []
    },
    {
      "summary": "Maximum number of haplotypes to consider for your population",
      "name": "--max-num-haplotypes-in-population",
      "synonyms": "NA",
      "type": "int",
      "required": "no",
      "fulltext": "The assembly graph can be quite complex, and could imply a very large number of possible haplotypes.  Each haplotype\n considered requires N PairHMM evaluations if there are N reads across all samples.  In order to control the\n run of the haplotype caller we only take maxNumHaplotypesInPopulation paths from the graph, in order of their\n weights, no matter how many paths are possible to generate from the graph.  Putting this number too low\n will result in dropping true variation because paths that include the real variant are not even considered.\n You can consider increasing this number when calling organisms with high heterozygosity.",
      "defaultValue": "128",
      "minValue": "-Infinity",
      "maxValue": "Infinity",
      "minRecValue": "NA",
      "maxRecValue": "NA",
      "kind": "advanced",
      "options": []
    },
    {
      "summary": "Upper limit on how many bases away probability mass can be moved around when calculating the boundaries between active and inactive assembly regions",
      "name": "--max-prob-propagation-distance",
      "synonyms": "NA",
      "type": "int",
      "required": "no",
      "fulltext": "",
      "defaultValue": "50",
      "minValue": "-Infinity",
      "maxValue": "Infinity",
      "minRecValue": "NA",
      "maxRecValue": "NA",
      "kind": "advanced",
      "options": []
    },
    {
      "summary": "Maximum number of reads to retain per alignment start position. Reads above this threshold will be downsampled. Set to 0 to disable.",
      "name": "--max-reads-per-alignment-start",
      "synonyms": "NA",
      "type": "int",
      "required": "no",
      "fulltext": "",
      "defaultValue": "50",
      "minValue": "-Infinity",
      "maxValue": "Infinity",
      "minRecValue": "NA",
      "maxRecValue": "NA",
      "kind": "optional",
      "options": []
    },
    {
      "summary": "Maximum number of variants in graph the adaptive pruner will allow",
      "name": "--max-unpruned-variants",
      "synonyms": "NA",
      "type": "int",
      "required": "no",
      "fulltext": "The maximum number of variants in graph the adaptive pruner will allow",
      "defaultValue": "100",
      "minValue": "-Infinity",
      "maxValue": "Infinity",
      "minRecValue": "NA",
      "maxRecValue": "NA",
      "kind": "advanced",
      "options": []
    },
    {
      "summary": "Minimum size of an assembly region",
      "name": "--min-assembly-region-size",
      "synonyms": "NA",
      "type": "int",
      "required": "no",
      "fulltext": "",
      "defaultValue": "50",
      "minValue": "-Infinity",
      "maxValue": "Infinity",
      "minRecValue": "NA",
      "maxRecValue": "NA",
      "kind": "advanced",
      "options": []
    },
    {
      "summary": "Minimum base quality required to consider a base for calling",
      "name": "--min-base-quality-score",
      "synonyms": "-mbq",
      "type": "byte",
      "required": "no",
      "fulltext": "Bases with a quality below this threshold will not be used for calling.",
      "defaultValue": "10",
      "minValue": "-Infinity",
      "maxValue": "Infinity",
      "minRecValue": "NA",
      "maxRecValue": "NA",
      "kind": "optional",
      "options": []
    },
    {
      "summary": "Minimum length of a dangling branch to attempt recovery",
      "name": "--min-dangling-branch-length",
      "synonyms": "NA",
      "type": "int",
      "required": "no",
      "fulltext": "When constructing the assembly graph we are often left with \"dangling\" branches.  The assembly engine attempts to rescue these branches\n by merging them back into the main graph.  This argument describes the minimum length of a dangling branch needed for the engine to\n try to rescue it.  A smaller number here will lead to higher sensitivity to real variation but also to a higher number of false positives.",
      "defaultValue": "4",
      "minValue": "-Infinity",
      "maxValue": "Infinity",
      "minRecValue": "NA",
      "maxRecValue": "NA",
      "kind": "advanced",
      "options": []
    },
    {
      "summary": "Minimum support to not prune paths in the graph",
      "name": "--min-pruning",
      "synonyms": "NA",
      "type": "int",
      "required": "no",
      "fulltext": "Paths with fewer supporting kmers than the specified threshold will be pruned from the graph.\n\n Be aware that this argument can dramatically affect the results of variant calling and should only be used with great caution.\n Using a prune factor of 1 (or below) will prevent any pruning from the graph, which is generally not ideal; it can make the\n calling much slower and even less accurate (because it can prevent effective merging of \"tails\" in the graph).  Higher values\n tend to make the calling much faster, but also lowers the sensitivity of the results (because it ultimately requires higher\n depth to produce calls).",
      "defaultValue": "2",
      "minValue": "-Infinity",
      "maxValue": "Infinity",
      "minRecValue": "NA",
      "maxRecValue": "NA",
      "kind": "advanced",
      "options": []
    },
    {
      "summary": "How many threads should a native pairHMM implementation use",
      "name": "--native-pair-hmm-threads",
      "synonyms": "NA",
      "type": "int",
      "required": "no",
      "fulltext": "",
      "defaultValue": "4",
      "minValue": "-Infinity",
      "maxValue": "Infinity",
      "minRecValue": "NA",
      "maxRecValue": "NA",
      "kind": "optional",
      "options": []
    },
    {
      "summary": "use double precision in the native pairHmm. This is slower but matches the java implementation better",
      "name": "--native-pair-hmm-use-double-precision",
      "synonyms": "NA",
      "type": "boolean",
      "required": "no",
      "fulltext": "",
      "defaultValue": "false",
      "minValue": "NA",
      "maxValue": "NA",
      "minRecValue": "NA",
      "maxRecValue": "NA",
      "kind": "optional",
      "options": []
    },
    {
      "summary": "Number of samples that must pass the minPruning threshold",
      "name": "--num-pruning-samples",
      "synonyms": "NA",
      "type": "int",
      "required": "no",
      "fulltext": "If fewer samples than the specified number pass the minPruning threshold for a given path, that path will be eliminated from the graph.",
      "defaultValue": "1",
      "minValue": "-Infinity",
      "maxValue": "Infinity",
      "minRecValue": "NA",
      "maxRecValue": "NA",
      "kind": "advanced",
      "options": []
    },
    {
      "summary": "Number of hom-ref genotypes to infer at sites not present in a panel",
      "name": "--num-reference-samples-if-no-call",
      "synonyms": "NA",
      "type": "int",
      "required": "no",
      "fulltext": "When a variant is not seen in any panel, this argument controls whether to infer (and with what effective strength)\n that only reference alleles were observed at that site. E.g. \"If not seen in 1000Genomes, treat it as AC\u003d0,\n AN\u003d2000\".",
      "defaultValue": "0",
      "minValue": "-Infinity",
      "maxValue": "Infinity",
      "minRecValue": "NA",
      "maxRecValue": "NA",
      "kind": "optional",
      "options": []
    },
    {
      "summary": "File to which variants should be written",
      "name": "--output",
      "synonyms": "-O",
      "type": "String",
      "required": "yes",
      "fulltext": "A raw, unfiltered, highly sensitive callset in VCF format.",
      "defaultValue": "null",
      "minValue": "NA",
      "maxValue": "NA",
      "minRecValue": "NA",
      "maxRecValue": "NA",
      "kind": "required",
      "options": []
    },
    {
      "summary": "Specifies which type of calls we should output",
      "name": "--output-mode",
      "synonyms": "NA",
      "type": "OutputMode",
      "required": "no",
      "fulltext": "",
      "defaultValue": "EMIT_VARIANTS_ONLY",
      "minValue": "NA",
      "maxValue": "NA",
      "minRecValue": "NA",
      "maxRecValue": "NA",
      "kind": "optional",
      "options": [
        {
          "summary": "produces calls only at variant sites",
          "name": "EMIT_VARIANTS_ONLY"
        },
        {
          "summary": "produces calls at variant sites and confident reference sites",
          "name": "EMIT_ALL_CONFIDENT_SITES"
        },
        {
          "summary": "produces calls at any callable site regardless of confidence; this argument is intended only for point\n mutations (SNPs) in DISCOVERY mode or generally when running in GENOTYPE_GIVEN_ALLELES mode; it will by\n no means produce a comprehensive set of indels in DISCOVERY mode",
          "name": "EMIT_ALL_SITES"
        }
      ]
    },
    {
      "summary": "Flat gap continuation penalty for use in the Pair HMM",
      "name": "--pair-hmm-gap-continuation-penalty",
      "synonyms": "NA",
      "type": "int",
      "required": "no",
      "fulltext": "",
      "defaultValue": "10",
      "minValue": "-Infinity",
      "maxValue": "Infinity",
      "minRecValue": "NA",
      "maxRecValue": "NA",
      "kind": "advanced",
      "options": []
    },
    {
      "summary": "The PairHMM implementation to use for genotype likelihood calculations",
      "name": "--pair-hmm-implementation",
      "synonyms": "-pairHMM",
      "type": "Implementation",
      "required": "no",
      "fulltext": "The PairHMM implementation to use for genotype likelihood calculations. The various implementations balance a tradeoff of accuracy and runtime.",
      "defaultValue": "FASTEST_AVAILABLE",
      "minValue": "NA",
      "maxValue": "NA",
      "minRecValue": "NA",
      "maxRecValue": "NA",
      "kind": "advanced",
      "options": [
        {
          "summary": "",
          "name": "EXACT"
        },
        {
          "summary": "",
          "name": "ORIGINAL"
        },
        {
          "summary": "",
          "name": "LOGLESS_CACHING"
        },
        {
          "summary": "",
          "name": "AVX_LOGLESS_CACHING"
        },
        {
          "summary": "",
          "name": "AVX_LOGLESS_CACHING_OMP"
        },
        {
          "summary": "",
          "name": "EXPERIMENTAL_FPGA_LOGLESS_CACHING"
        },
        {
          "summary": "",
          "name": "FASTEST_AVAILABLE"
        }
      ]
    },
    {
      "summary": "The PCR indel model to use",
      "name": "--pcr-indel-model",
      "synonyms": "NA",
      "type": "PCRErrorModel",
      "required": "no",
      "fulltext": "When calculating the likelihood of variants, we can try to correct for PCR errors that cause indel artifacts.\n The correction is based on the reference context, and acts specifically around repetitive sequences that tend\n to cause PCR errors). The variant likelihoods are penalized in increasing scale as the context around a\n putative indel is more repetitive (e.g. long homopolymer). The correction can be disabling by specifying\n \u0027-pcrModel NONE\u0027; in that case the default base insertion/deletion qualities will be used (or taken from the\n read if generated through the BaseRecalibrator). \u003cb\u003eVERY IMPORTANT: when using PCR-free sequencing data we\n definitely recommend setting this argument to NONE\u003c/b\u003e.",
      "defaultValue": "CONSERVATIVE",
      "minValue": "NA",
      "maxValue": "NA",
      "minRecValue": "NA",
      "maxRecValue": "NA",
      "kind": "advanced",
      "options": [
        {
          "summary": "no specialized PCR error model will be applied; if base insertion/deletion qualities are present they will be used",
          "name": "NONE"
        },
        {
          "summary": "a most aggressive model will be applied that sacrifices true positives in order to remove more false positives",
          "name": "HOSTILE"
        },
        {
          "summary": "a more aggressive model will be applied that sacrifices true positives in order to remove more false positives",
          "name": "AGGRESSIVE"
        },
        {
          "summary": "a less aggressive model will be applied that tries to maintain a high true positive rate at the expense of allowing more false positives",
          "name": "CONSERVATIVE"
        }
      ]
    },
    {
      "summary": "Pedigree file for determining the population \"founders\"",
      "name": "--pedigree",
      "synonyms": "-ped",
      "type": "File",
      "required": "no",
      "fulltext": "",
      "defaultValue": "null",
      "minValue": "NA",
      "maxValue": "NA",
      "minRecValue": "NA",
      "maxRecValue": "NA",
      "kind": "optional",
      "options": []
    },
    {
      "summary": "The global assumed mismapping rate for reads",
      "name": "--phred-scaled-global-read-mismapping-rate",
      "synonyms": "NA",
      "type": "int",
      "required": "no",
      "fulltext": "The phredScaledGlobalReadMismappingRate reflects the average global mismapping rate of all reads, regardless of their\n mapping quality.  This term effects the probability that a read originated from the reference haplotype, regardless of\n its edit distance from the reference, in that the read could have originated from the reference haplotype but\n from another location in the genome.  Suppose a read has many mismatches from the reference, say like 5, but\n has a very high mapping quality of 60.  Without this parameter, the read would contribute 5 * Q30 evidence\n in favor of its 5 mismatch haplotype compared to reference, potentially enough to make a call off that single\n read for all of these events.  With this parameter set to Q30, though, the maximum evidence against any haplotype\n that this (and any) read could contribute is Q30.\n\n Set this term to any negative number to turn off the global mapping rate.",
      "defaultValue": "45",
      "minValue": "-Infinity",
      "maxValue": "Infinity",
      "minRecValue": "NA",
      "maxRecValue": "NA",
      "kind": "advanced",
      "options": []
    },
    {
      "summary": "Callset to use in calculating genotype priors",
      "name": "--population-callset",
      "synonyms": "-population",
      "type": "FeatureInput[VariantContext]",
      "required": "no",
      "fulltext": "Supporting external panel. Allele counts from this panel (taken from AC,AN or MLEAC,AN or raw genotypes) will\n be used to inform the frequency distribution underlying the genotype priors. These files must be VCF 4.2 spec or later.\n Note that unlike CalculateGenotypePosteriors, HaplotypeCaller only allows one supporting callset.",
      "defaultValue": "null",
      "minValue": "NA",
      "maxValue": "NA",
      "minRecValue": "NA",
      "maxRecValue": "NA",
      "kind": "optional",
      "options": []
    },
    {
      "summary": "Log-10 likelihood ratio threshold for adaptive pruning algorithm",
      "name": "--pruning-lod-threshold",
      "synonyms": "NA",
      "type": "double",
      "required": "no",
      "fulltext": "Log-10 likelihood ratio threshold for adaptive pruning algorithm.",
      "defaultValue": "1.0",
      "minValue": "-Infinity",
      "maxValue": "Infinity",
      "minRecValue": "NA",
      "maxRecValue": "NA",
      "kind": "advanced",
      "options": []
    },
    {
      "summary": "Whether to suppress job-summary info on System.err.",
      "name": "--QUIET",
      "synonyms": "NA",
      "type": "Boolean",
      "required": "no",
      "fulltext": "",
      "defaultValue": "false",
      "minValue": "NA",
      "maxValue": "NA",
      "minRecValue": "NA",
      "maxRecValue": "NA",
      "kind": "common",
      "options": []
    },
    {
      "summary": "Read filters to be applied before analysis",
      "name": "--read-filter",
      "synonyms": "-RF",
      "type": "List[String]",
      "required": "no",
      "fulltext": "",
      "defaultValue": "[]",
      "minValue": "NA",
      "maxValue": "NA",
      "minRecValue": "NA",
      "maxRecValue": "NA",
      "kind": "common",
      "options": []
    },
    {
      "summary": "Indices to use for the read inputs. If specified, an index must be provided for every read input and in the same order as the read inputs. If this argument is not specified, the path to the index for each input will be inferred automatically.",
      "name": "--read-index",
      "synonyms": "-read-index",
      "type": "List[String]",
      "required": "no",
      "fulltext": "",
      "defaultValue": "[]",
      "minValue": "NA",
      "maxValue": "NA",
      "minRecValue": "NA",
      "maxRecValue": "NA",
      "kind": "common",
      "options": []
    },
    {
      "summary": "Validation stringency for all SAM/BAM/CRAM/SRA files read by this program.  The default stringency value SILENT can improve performance when processing a BAM file in which variable-length data (read, qualities, tags) do not otherwise need to be decoded.",
      "name": "--read-validation-stringency",
      "synonyms": "-VS",
      "type": "ValidationStringency",
      "required": "no",
      "fulltext": "",
      "defaultValue": "SILENT",
      "minValue": "NA",
      "maxValue": "NA",
      "minRecValue": "NA",
      "maxRecValue": "NA",
      "kind": "common",
      "options": [
        {
          "summary": "",
          "name": "STRICT"
        },
        {
          "summary": "",
          "name": "LENIENT"
        },
        {
          "summary": "",
          "name": "SILENT"
        }
      ]
    },
    {
      "summary": "Recover all dangling branches",
      "name": "--recover-all-dangling-branches",
      "synonyms": "NA",
      "type": "boolean",
      "required": "no",
      "fulltext": "By default, the read threading assembler does not recover dangling branches that fork after splitting from the reference.  This argument\n tells the assembly engine to recover all dangling branches.",
      "defaultValue": "false",
      "minValue": "NA",
      "maxValue": "NA",
      "minRecValue": "NA",
      "maxRecValue": "NA",
      "kind": "advanced",
      "options": []
    },
    {
      "summary": "This argument is deprecated since version 3.3",
      "name": "--recover-dangling-heads",
      "synonyms": "NA",
      "type": "boolean",
      "required": "no",
      "fulltext": "As of version 3.3, this argument is no longer needed because dangling end recovery is now the default behavior. See GATK 3.3 release notes for more details.",
      "defaultValue": "false",
      "minValue": "NA",
      "maxValue": "NA",
      "minRecValue": "NA",
      "maxRecValue": "NA",
      "kind": "deprecated",
      "options": []
    },
    {
      "summary": "Reference sequence file",
      "name": "--reference",
      "synonyms": "-R",
      "type": "String",
      "required": "yes",
      "fulltext": "",
      "defaultValue": "null",
      "minValue": "NA",
      "maxValue": "NA",
      "minRecValue": "NA",
      "maxRecValue": "NA",
      "kind": "required",
      "options": []
    },
    {
      "summary": "Name of single sample to use from a multi-sample bam",
      "name": "--sample-name",
      "synonyms": "-ALIAS",
      "type": "String",
      "required": "no",
      "fulltext": "You can use this argument to specify that HC should process a single sample out of a multisample BAM file. This\n is especially useful if your samples are all in the same file but you need to run them individually through HC\n in -ERC GVC mode (which is the recommended usage). Note that the name is case-sensitive.",
      "defaultValue": "null",
      "minValue": "NA",
      "maxValue": "NA",
      "minRecValue": "NA",
      "maxRecValue": "NA",
      "kind": "optional",
      "options": []
    },
    {
      "summary": "Ploidy (number of chromosomes) per sample. For pooled data, set to (Number of samples in each pool * Sample Ploidy).",
      "name": "--sample-ploidy",
      "synonyms": "-ploidy",
      "type": "int",
      "required": "no",
      "fulltext": "Sample ploidy - equivalent to number of chromosomes per pool. In pooled experiments this should be \u003d # of samples in pool * individual sample ploidy",
      "defaultValue": "2",
      "minValue": "-Infinity",
      "maxValue": "Infinity",
      "minRecValue": "NA",
      "maxRecValue": "NA",
      "kind": "optional",
      "options": []
    },
    {
      "summary": "Output traversal statistics every time this many seconds elapse",
      "name": "--seconds-between-progress-updates",
      "synonyms": "-seconds-between-progress-updates",
      "type": "double",
      "required": "no",
      "fulltext": "",
      "defaultValue": "10.0",
      "minValue": "-Infinity",
      "maxValue": "Infinity",
      "minRecValue": "NA",
      "maxRecValue": "NA",
      "kind": "common",
      "options": []
    },
    {
      "summary": "Use the given sequence dictionary as the master/canonical sequence dictionary.  Must be a .dict file.",
      "name": "--sequence-dictionary",
      "synonyms": "-sequence-dictionary",
      "type": "String",
      "required": "no",
      "fulltext": "",
      "defaultValue": "null",
      "minValue": "NA",
      "maxValue": "NA",
      "minRecValue": "NA",
      "maxRecValue": "NA",
      "kind": "common",
      "options": []
    },
    {
      "summary": "display hidden arguments",
      "name": "--showHidden",
      "synonyms": "-showHidden",
      "type": "boolean",
      "required": "no",
      "fulltext": "",
      "defaultValue": "false",
      "minValue": "NA",
      "maxValue": "NA",
      "minRecValue": "NA",
      "maxRecValue": "NA",
      "kind": "advanced",
      "options": []
    },
    {
      "summary": "If true, don\u0027t emit genotype fields when writing vcf file output.",
      "name": "--sites-only-vcf-output",
      "synonyms": "NA",
      "type": "boolean",
      "required": "no",
      "fulltext": "",
      "defaultValue": "false",
      "minValue": "NA",
      "maxValue": "NA",
      "minRecValue": "NA",
      "maxRecValue": "NA",
      "kind": "optional",
      "options": []
    },
    {
      "summary": "Which Smith-Waterman implementation to use, generally FASTEST_AVAILABLE is the right choice",
      "name": "--smith-waterman",
      "synonyms": "NA",
      "type": "Implementation",
      "required": "no",
      "fulltext": "",
      "defaultValue": "JAVA",
      "minValue": "NA",
      "maxValue": "NA",
      "minRecValue": "NA",
      "maxRecValue": "NA",
      "kind": "advanced",
      "options": [
        {
          "summary": "use the fastest available Smith-Waterman aligner that runs on your hardware",
          "name": "FASTEST_AVAILABLE"
        },
        {
          "summary": "use the AVX enabled Smith-Waterman aligner",
          "name": "AVX_ENABLED"
        },
        {
          "summary": "use the pure java implementation of Smith-Waterman, works on all hardware",
          "name": "JAVA"
        }
      ]
    },
    {
      "summary": "The minimum phred-scaled confidence threshold at which variants should be called",
      "name": "--standard-min-confidence-threshold-for-calling",
      "synonyms": "-stand-call-conf",
      "type": "double",
      "required": "no",
      "fulltext": "The minimum phred-scaled confidence threshold at which variants should be called. Only variant sites with QUAL equal\n or greater than this threshold will be called. Note that since version 3.7, we no longer differentiate high confidence\n from low confidence calls at the calling step. The default call confidence threshold is set low intentionally to achieve\n high sensitivity, which will allow false positive calls as a side effect. Be sure to perform some kind of filtering after\n calling to reduce the amount of false positives in your final callset. Note that when HaplotypeCaller is used in GVCF mode\n (using either -ERC GVCF or -ERC BP_RESOLUTION) the call threshold is automatically set to zero. Call confidence thresholding\n will then be performed in the subsequent GenotypeGVCFs command.\n\n Note that the default was changed from 10.0 to 30.0 in version 4.1.0.0 to accompany the switch to use the the new quality score by default.",
      "defaultValue": "30.0",
      "minValue": "-Infinity",
      "maxValue": "Infinity",
      "minRecValue": "NA",
      "maxRecValue": "NA",
      "kind": "optional",
      "options": []
    },
    {
      "summary": "Temp directory to use.",
      "name": "--tmp-dir",
      "synonyms": "NA",
      "type": "String",
      "required": "no",
      "fulltext": "",
      "defaultValue": "null",
      "minValue": "NA",
      "maxValue": "NA",
      "minRecValue": "NA",
      "maxRecValue": "NA",
      "kind": "common",
      "options": []
    },
    {
      "summary": "Use additional trigger on variants found in an external alleles file",
      "name": "--use-alleles-trigger",
      "synonyms": "NA",
      "type": "boolean",
      "required": "no",
      "fulltext": "",
      "defaultValue": "false",
      "minValue": "NA",
      "maxValue": "NA",
      "minRecValue": "NA",
      "maxRecValue": "NA",
      "kind": "advanced",
      "options": []
    },
    {
      "summary": "Use the contamination-filtered read maps for the purposes of annotating variants",
      "name": "--use-filtered-reads-for-annotations",
      "synonyms": "NA",
      "type": "boolean",
      "required": "no",
      "fulltext": "",
      "defaultValue": "false",
      "minValue": "NA",
      "maxValue": "NA",
      "minRecValue": "NA",
      "maxRecValue": "NA",
      "kind": "advanced",
      "options": []
    },
    {
      "summary": "Whether to use the JdkDeflater (as opposed to IntelDeflater)",
      "name": "--use-jdk-deflater",
      "synonyms": "-jdk-deflater",
      "type": "boolean",
      "required": "no",
      "fulltext": "",
      "defaultValue": "false",
      "minValue": "NA",
      "maxValue": "NA",
      "minRecValue": "NA",
      "maxRecValue": "NA",
      "kind": "common",
      "options": []
    },
    {
      "summary": "Whether to use the JdkInflater (as opposed to IntelInflater)",
      "name": "--use-jdk-inflater",
      "synonyms": "-jdk-inflater",
      "type": "boolean",
      "required": "no",
      "fulltext": "",
      "defaultValue": "false",
      "minValue": "NA",
      "maxValue": "NA",
      "minRecValue": "NA",
      "maxRecValue": "NA",
      "kind": "common",
      "options": []
    },
    {
      "summary": "Use the new AF model instead of the so-called exact model",
      "name": "--use-new-qual-calculator",
      "synonyms": "-new-qual",
      "type": "boolean",
      "required": "no",
      "fulltext": "As of version 4.1.0.0, this argument is no longer needed because the new qual score is now on by default. See GATK 3.3 release notes for more details.",
      "defaultValue": "true",
      "minValue": "NA",
      "maxValue": "NA",
      "minRecValue": "NA",
      "maxRecValue": "NA",
      "kind": "deprecated",
      "options": []
    },
    {
      "summary": "Use the old AF model",
      "name": "--use-old-qual-calculator",
      "synonyms": "-old-qual",
      "type": "boolean",
      "required": "no",
      "fulltext": "Use the old GATK 3 qual score aka the \"exact model\"",
      "defaultValue": "false",
      "minValue": "NA",
      "maxValue": "NA",
      "minRecValue": "NA",
      "maxRecValue": "NA",
      "kind": "optional",
      "options": []
    },
    {
      "summary": "Control verbosity of logging.",
      "name": "--verbosity",
      "synonyms": "-verbosity",
      "type": "LogLevel",
      "required": "no",
      "fulltext": "",
      "defaultValue": "INFO",
      "minValue": "NA",
      "maxValue": "NA",
      "minRecValue": "NA",
      "maxRecValue": "NA",
      "kind": "common",
      "options": [
        {
          "summary": "",
          "name": "ERROR"
        },
        {
          "summary": "",
          "name": "WARNING"
        },
        {
          "summary": "",
          "name": "INFO"
        },
        {
          "summary": "",
          "name": "DEBUG"
        }
      ]
    },
    {
      "summary": "display the version number for this tool",
      "name": "--version",
      "synonyms": "NA",
      "type": "boolean",
      "required": "no",
      "fulltext": "",
      "defaultValue": "false",
      "minValue": "NA",
      "maxValue": "NA",
      "minRecValue": "NA",
      "maxRecValue": "NA",
      "kind": "optional",
      "options": []
    }
  ],
  "description": "Call germline SNPs and indels via local re-assembly of haplotypes\n\n \u003cp\u003eThe HaplotypeCaller is capable of calling SNPs and indels simultaneously via local de-novo assembly of haplotypes in an active region. In other words, whenever the program encounters a region showing signs of variation, it discards the existing mapping information and completely reassembles the reads in that region. This allows the HaplotypeCaller to be more accurate when calling regions that are traditionally difficult to call, for example when they contain different types of variants close to each other. It also makes the HaplotypeCaller much better at calling indels than position-based callers like UnifiedGenotyper.\u003c/p\u003e\n\n \u003cp\u003eIn the GVCF workflow used for scalable variant calling in DNA sequence data, HaplotypeCaller runs per-sample to generate an intermediate GVCF (not to be used in final analysis), which can then be used in GenotypeGVCFs for joint genotyping of multiple samples in a very efficient way. The GVCF workflow enables rapid incremental processing of samples as they roll off the sequencer, as well as scaling to very large cohort sizes (e.g. the 92K exomes of ExAC).\u003c/p\u003e\n\n \u003cp\u003eIn addition, HaplotypeCaller is able to handle non-diploid organisms as well as pooled experiment data. Note however that the algorithms used to calculate variant likelihoods is not well suited to extreme allele frequencies (relative to ploidy) so its use is not recommended for somatic (cancer) variant discovery. For that purpose, use Mutect2 instead.\u003c/p\u003e\n\n \u003cp\u003eFinally, HaplotypeCaller is also able to correctly handle the splice junctions that make RNAseq a challenge for most variant callers,\n on the condition that the input read data has previously been processed according to our recommendations as documented \u003ca href\u003d\u0027https://software.broadinstitute.org/gatk/documentation/article?id\u003d4067\u0027\u003ehere\u003c/a\u003e.\u003c/p\u003e\n\n \u003ch3\u003eHow HaplotypeCaller works\u003c/h3\u003e\n\n \u003cbr /\u003e\n \u003ch4\u003e\u003ca href\u003d\u0027https://software.broadinstitute.org/gatk/documentation/article?id\u003d4147\u0027\u003e1. Define active regions \u003c/a\u003e\u003c/h4\u003e\n\n \u003cp\u003eThe program determines which regions of the genome it needs to operate on (active regions), based on the presence of\n evidence for variation.\n\n \u003cbr /\u003e\n \u003ch4\u003e\u003ca href\u003d\u0027https://software.broadinstitute.org/gatk/documentation/article?id\u003d4146\u0027\u003e2. Determine haplotypes by assembly of the active region \u003c/a\u003e\u003c/h4\u003e\n\n \u003cp\u003eFor each active region, the program builds a De Bruijn-like graph to reassemble the active region and identifies\n what are the possible haplotypes present in the data. The program then realigns each haplotype against the reference\n haplotype using the Smith-Waterman algorithm in order to identify potentially variant sites. \u003c/p\u003e\n\n \u003cbr /\u003e\n \u003ch4\u003e\u003ca href\u003d\u0027https://software.broadinstitute.org/gatk/documentation/article?id\u003d4441\u0027\u003e3. Determine likelihoods of the haplotypes given the read data \u003c/a\u003e\u003c/h4\u003e\n\n \u003cp\u003eFor each active region, the program performs a pairwise alignment of each read against each haplotype using the\n PairHMM algorithm. This produces a matrix of likelihoods of haplotypes given the read data. These likelihoods are\n then marginalized to obtain the likelihoods of alleles for each potentially variant site given the read data.   \u003c/p\u003e\n\n \u003cbr /\u003e\n \u003ch4\u003e\u003ca href\u003d\u0027https://software.broadinstitute.org/gatk/documentation/article?id\u003d4442\u0027\u003e4. Assign sample genotypes \u003c/a\u003e\u003c/h4\u003e\n\n \u003cp\u003eFor each potentially variant site, the program applies Bayes\u0027 rule, using the likelihoods of alleles given the\n read data to calculate the likelihoods of each genotype per sample given the read data observed for that\n sample. The most likely genotype is then assigned to the sample.    \u003c/p\u003e\n\n \u003ch3\u003eInput\u003c/h3\u003e\n \u003cp\u003e\n Input bam file(s) from which to make variant calls\n \u003c/p\u003e\n\n \u003ch3\u003eOutput\u003c/h3\u003e\n \u003cp\u003e\n Either a VCF or GVCF file with raw, unfiltered SNP and indel calls. Regular VCFs must be filtered either by variant\n recalibration (Best Practice) or hard-filtering before use in downstream analyses. If using the GVCF workflow, the\n output is a GVCF file that must first be run through GenotypeGVCFs and then filtering before further analysis.\n \u003c/p\u003e\n\n \u003ch3\u003eUsage examples\u003c/h3\u003e\n\n \u003cp\u003eThese are example commands that show how to run HaplotypeCaller for typical use cases. Have a look at the \u003ca href\u003d\u0027https://software.broadinstitute.org/gatk/documentation/article?id\u003d3893\u0027\u003emethod documentation\u003c/a\u003e for the basic GVCF workflow. \u003c/p\u003e\n\n \u003cbr /\u003e\n \u003ch4\u003eSingle-sample GVCF calling (outputs intermediate GVCF)\u003c/h4\u003e\n \u003cpre\u003e\n gatk --java-options \"-Xmx4g\" HaplotypeCaller  \\\n   -R Homo_sapiens_assembly38.fasta \\\n   -I input.bam \\\n   -O output.g.vcf.gz \\\n   -ERC GVCF\n \u003c/pre\u003e\n\n \u003ch4\u003eSingle-sample GVCF calling with \u003ca href\u003d\u0027https://software.broadinstitute.org/gatk/documentation/article?id\u003d9622\u0027\u003eallele-specific annotations\u003c/a\u003e\u003c/h4\u003e\n \u003cpre\u003e\n gatk --java-options \"-Xmx4g\" HaplotypeCaller  \\\n   -R Homo_sapiens_assembly38.fasta \\\n   -I input.bam \\\n   -O output.g.vcf.gz \\\n   -ERC GVCF \\\n   -G Standard \\\n   -G AS_Standard\n \u003c/pre\u003e\n\n \u003ch4\u003eVariant calling with \u003ca href\u003d\u0027https://software.broadinstitute.org/gatk/documentation/article?id\u003d5484\u0027\u003ebamout\u003c/a\u003e to show realigned reads\u003c/h4\u003e\n \u003cpre\u003e\n gatk --java-options \"-Xmx4g\" HaplotypeCaller  \\\n   -R Homo_sapiens_assembly38.fasta \\\n   -I input.bam \\\n   -O output.vcf.gz \\\n   -bamout bamout.bam\n \u003c/pre\u003e\n\n \u003ch3\u003eCaveats\u003c/h3\u003e\n \u003cul\u003e\n \u003cli\u003eWe have not yet fully tested the interaction between the GVCF-based calling or the multisample calling and the\n RNAseq-specific functionalities. Use those in combination at your own risk.\u003c/li\u003e\n \u003c/ul\u003e\n\n \u003ch3\u003eSpecial note on ploidy\u003c/h3\u003e\n \u003cp\u003eThis tool is able to handle many non-diploid use cases; the desired ploidy can be specified using the -ploidy\n argument. Note however that very high ploidies (such as are encountered in large pooled experiments) may cause\n performance challenges including excessive slowness. We are working on resolving these limitations.\u003c/p\u003e\n\n \u003ch3\u003eAdditional Notes\u003c/h3\u003e\n \u003cul\u003e\n     \u003cli\u003eWhen working with PCR-free data, be sure to set `-pcr_indel_model NONE` (see argument below).\u003c/li\u003e\n     \u003cli\u003eWhen running in `-ERC GVCF` or `-ERC BP_RESOLUTION` modes, the confidence threshold\n     is automatically set to 0. This cannot be overridden by the command line. The threshold can be set manually\n     to the desired level in the next step of the workflow (GenotypeGVCFs)\u003c/li\u003e\n     \u003cli\u003eWe recommend using a list of intervals to speed up analysis. See \u003ca href\u003d\u0027https://software.broadinstitute.org/gatk/documentation/article?id\u003d4133\u0027\u003ethis document\u003c/a\u003e for details.\u003c/li\u003e\n \u003c/ul\u003e",
  "name": "HaplotypeCaller",
  "group": "Short Variant Discovery",
  "beta": false,
  "experimental": false
}