{
  "summary": "Evaluate and compare base quality score recalibration (BQSR) tables",
  "arguments": [
    {
      "summary": "file containing the BQSR second-pass report file",
      "name": "--after-report-file",
      "synonyms": "-after",
      "type": "File",
      "required": "no",
      "fulltext": "File containing the recalibration tables from the second pass.",
      "defaultValue": "null",
      "minValue": "NA",
      "maxValue": "NA",
      "minRecValue": "NA",
      "maxRecValue": "NA",
      "kind": "optional",
      "options": []
    },
    {
      "summary": "read one or more arguments files and add them to the command line",
      "name": "--arguments_file",
      "synonyms": "NA",
      "type": "List[File]",
      "required": "no",
      "fulltext": "",
      "defaultValue": "[]",
      "minValue": "NA",
      "maxValue": "NA",
      "minRecValue": "NA",
      "maxRecValue": "NA",
      "kind": "optional",
      "options": []
    },
    {
      "summary": "file containing the BQSR first-pass report file",
      "name": "--before-report-file",
      "synonyms": "-before",
      "type": "File",
      "required": "no",
      "fulltext": "File containing the recalibration tables from the first pass.",
      "defaultValue": "null",
      "minValue": "NA",
      "maxValue": "NA",
      "minRecValue": "NA",
      "maxRecValue": "NA",
      "kind": "optional",
      "options": []
    },
    {
      "summary": "Input covariates table file for on-the-fly base quality score recalibration",
      "name": "--bqsr-recal-file",
      "synonyms": "-bqsr",
      "type": "File",
      "required": "no",
      "fulltext": "Enables recalibration of base qualities, intended primarily for use with BaseRecalibrator and ApplyBQSR\n (see Best Practices workflow documentation). The covariates tables are produced by the BaseRecalibrator tool.\n Please be aware that you should only run recalibration with the covariates file created on the same input bam(s).",
      "defaultValue": "null",
      "minValue": "NA",
      "maxValue": "NA",
      "minRecValue": "NA",
      "maxRecValue": "NA",
      "kind": "optional",
      "options": []
    },
    {
      "summary": "A configuration file to use with the GATK.",
      "name": "--gatk-config-file",
      "synonyms": "NA",
      "type": "String",
      "required": "no",
      "fulltext": "",
      "defaultValue": "null",
      "minValue": "NA",
      "maxValue": "NA",
      "minRecValue": "NA",
      "maxRecValue": "NA",
      "kind": "common",
      "options": []
    },
    {
      "summary": "If the GCS bucket channel errors out, how many times it will attempt to re-initiate the connection",
      "name": "--gcs-max-retries",
      "synonyms": "-gcs-retries",
      "type": "int",
      "required": "no",
      "fulltext": "",
      "defaultValue": "20",
      "minValue": "-Infinity",
      "maxValue": "Infinity",
      "minRecValue": "NA",
      "maxRecValue": "NA",
      "kind": "optional",
      "options": []
    },
    {
      "summary": "Project to bill when accessing \"requester pays\" buckets. If unset, these buckets cannot be accessed.",
      "name": "--gcs-project-for-requester-pays",
      "synonyms": "NA",
      "type": "String",
      "required": "no",
      "fulltext": "",
      "defaultValue": "\"\"",
      "minValue": "NA",
      "maxValue": "NA",
      "minRecValue": "NA",
      "maxRecValue": "NA",
      "kind": "optional",
      "options": []
    },
    {
      "summary": "display the help message",
      "name": "--help",
      "synonyms": "-h",
      "type": "boolean",
      "required": "no",
      "fulltext": "",
      "defaultValue": "false",
      "minValue": "NA",
      "maxValue": "NA",
      "minRecValue": "NA",
      "maxRecValue": "NA",
      "kind": "optional",
      "options": []
    },
    {
      "summary": "do not emit warning messages related to suspicious last modification time order of inputs",
      "name": "--ignore-last-modification-times",
      "synonyms": "NA",
      "type": "boolean",
      "required": "no",
      "fulltext": "If true, it won\u0027t show a warning if the last-modification time of the before and after input files suggest that they have been reversed.",
      "defaultValue": "false",
      "minValue": "NA",
      "maxValue": "NA",
      "minRecValue": "NA",
      "maxRecValue": "NA",
      "kind": "optional",
      "options": []
    },
    {
      "summary": "location of the csv intermediate file",
      "name": "--intermediate-csv-file",
      "synonyms": "-csv",
      "type": "File",
      "required": "no",
      "fulltext": "Output csv file name.",
      "defaultValue": "null",
      "minValue": "NA",
      "maxValue": "NA",
      "minRecValue": "NA",
      "maxRecValue": "NA",
      "kind": "optional",
      "options": []
    },
    {
      "summary": "location of the output report",
      "name": "--plots-report-file",
      "synonyms": "-plots",
      "type": "File",
      "required": "no",
      "fulltext": "Output report file name.",
      "defaultValue": "null",
      "minValue": "NA",
      "maxValue": "NA",
      "minRecValue": "NA",
      "maxRecValue": "NA",
      "kind": "optional",
      "options": []
    },
    {
      "summary": "Whether to suppress job-summary info on System.err.",
      "name": "--QUIET",
      "synonyms": "NA",
      "type": "Boolean",
      "required": "no",
      "fulltext": "",
      "defaultValue": "false",
      "minValue": "NA",
      "maxValue": "NA",
      "minRecValue": "NA",
      "maxRecValue": "NA",
      "kind": "common",
      "options": []
    },
    {
      "summary": "display hidden arguments",
      "name": "--showHidden",
      "synonyms": "-showHidden",
      "type": "boolean",
      "required": "no",
      "fulltext": "",
      "defaultValue": "false",
      "minValue": "NA",
      "maxValue": "NA",
      "minRecValue": "NA",
      "maxRecValue": "NA",
      "kind": "advanced",
      "options": []
    },
    {
      "summary": "Temp directory to use.",
      "name": "--tmp-dir",
      "synonyms": "NA",
      "type": "String",
      "required": "no",
      "fulltext": "",
      "defaultValue": "null",
      "minValue": "NA",
      "maxValue": "NA",
      "minRecValue": "NA",
      "maxRecValue": "NA",
      "kind": "common",
      "options": []
    },
    {
      "summary": "Whether to use the JdkDeflater (as opposed to IntelDeflater)",
      "name": "--use-jdk-deflater",
      "synonyms": "-jdk-deflater",
      "type": "boolean",
      "required": "no",
      "fulltext": "",
      "defaultValue": "false",
      "minValue": "NA",
      "maxValue": "NA",
      "minRecValue": "NA",
      "maxRecValue": "NA",
      "kind": "common",
      "options": []
    },
    {
      "summary": "Whether to use the JdkInflater (as opposed to IntelInflater)",
      "name": "--use-jdk-inflater",
      "synonyms": "-jdk-inflater",
      "type": "boolean",
      "required": "no",
      "fulltext": "",
      "defaultValue": "false",
      "minValue": "NA",
      "maxValue": "NA",
      "minRecValue": "NA",
      "maxRecValue": "NA",
      "kind": "common",
      "options": []
    },
    {
      "summary": "Control verbosity of logging.",
      "name": "--verbosity",
      "synonyms": "-verbosity",
      "type": "LogLevel",
      "required": "no",
      "fulltext": "",
      "defaultValue": "INFO",
      "minValue": "NA",
      "maxValue": "NA",
      "minRecValue": "NA",
      "maxRecValue": "NA",
      "kind": "common",
      "options": [
        {
          "summary": "",
          "name": "ERROR"
        },
        {
          "summary": "",
          "name": "WARNING"
        },
        {
          "summary": "",
          "name": "INFO"
        },
        {
          "summary": "",
          "name": "DEBUG"
        }
      ]
    },
    {
      "summary": "display the version number for this tool",
      "name": "--version",
      "synonyms": "NA",
      "type": "boolean",
      "required": "no",
      "fulltext": "",
      "defaultValue": "false",
      "minValue": "NA",
      "maxValue": "NA",
      "minRecValue": "NA",
      "maxRecValue": "NA",
      "kind": "optional",
      "options": []
    }
  ],
  "description": "Evaluate and compare base quality score recalibration tables\n\n \u003cp\u003eThis tool generates plots to assess the quality of a recalibration run as part of the Base Quality Score\n Recalibration (BQSR) procedure. \u003c/p\u003e\n\n \u003ch4\u003eSummary of the BQSR procedure\u003c/h4\u003e\n \u003cp\u003eThe goal of this procedure is to correct for systematic bias that affects the assignment of base quality scores\n by the sequencer. The first pass consists of calculating error empirically and finding patterns in how error varies\n with basecall features over all bases. The relevant observations are written to a recalibration table. The second\n pass consists of applying numerical corrections to each individual basecall based on the patterns identified in the\n first step (recorded in the recalibration table) and writing out the recalibrated data to a new BAM or CRAM file.\u003c/p\u003e\n\n \u003ch3\u003eInputs\u003c/h3\u003e\n\n \u003cp\u003eThe tool can take up to three different sets of recalibration tables.\n The resulting plots will be overlaid on top of each other to make\n comparisons easy.\u003c/p\u003e\n\n \u003ctable style\u003d\"text-align: left\"\u003e\n     \u003cthead\u003e\n       \u003ctr\u003e\u003cth\u003eSet\u003c/th\u003e\u003cth\u003eArgument\u003c/th\u003e\u003cth\u003eLabel\u003c/th\u003e\u003cth\u003eColor\u003c/th\u003e\u003cth\u003eDescription\u003c/th\u003e\u003c/tr\u003e\n     \u003c/thead\u003e\n     \u003ctbody\u003e\n       \u003ctr\u003e\u003ctd\u003eOriginal\u003c/td\u003e\u003ctd\u003e-before\u003c/td\u003e\u003ctd\u003eBEFORE\u003c/td\u003e\u003ctd style\u003d\"color: #ff34b3\"\u003eMaroon1\u003c/td\u003e\n         \u003ctd\u003eFirst pass recalibration\n             tables obtained from applying org.broadinstitute.hellbender.transformers.BQSRReadTransformer\n             on the original alignment.\u003c/td\u003e\u003c/tr\u003e\n       \u003ctr\u003e\u003ctd\u003eRecalibrated\u003c/td\u003e\u003ctd\u003e-after\u003c/td\u003e\u003ctd\u003eAFTER\u003c/td\u003e\u003ctd style\u003d\"color: #0000ff\"\u003eBlue\u003c/td\u003e\n         \u003ctd\u003eSecond pass recalibration tables\n             results from the application of org.broadinstitute.hellbender.transformers.BQSRReadTransformer\n             on the alignment recalibrated using the first pass tables\u003c/td\u003e\u003c/tr\u003e\n       \u003ctr\u003e\u003ctd\u003eInput\u003c/td\u003e\u003ctd\u003e-bqsr\u003c/td\u003e\u003ctd\u003eBQSR\u003c/td\u003e\u003ctd style\u003d\"color: #000000\"\u003eBlack\u003c/td\u003e\n           \u003ctd\u003eAny recalibration table without a specific role\u003c/td\u003e\u003c/tr\u003e\n     \u003c/tbody\u003e\n \u003c/table\u003e\n \u003cbr/\u003e\n\n \u003cp\u003eYou need to specify at least one set. Multiple sets need to have the same values for the following parameters:\u003c/p\u003e\n \u003cp\u003e\u003ci\u003ecovariate (order is not important), no_standard_covs, run_without_dbsnp, solid_recal_mode,\n solid_nocall_strategy, mismatches_context_size, mismatches_default_quality, deletions_default_quality,\n insertions_default_quality, maximum_cycle_value, low_quality_tail, default_platform, force_platform,\n quantizing_levels\u003c/i\u003e and \u003ci\u003ebinary_tag_name\u003c/i\u003e\u003c/p\u003e\n\n \u003ch3\u003eOutputs\u003c/h3\u003e\n\n \u003cp\u003eCurrently this tool generates two outputs:\u003c/p\u003e\n\n \u003cdl\u003e\n   \u003cdt style\u003d\"font-weight: normal\"\u003e-plots \u003ci\u003emy-report.pdf\u003c/i\u003e\u003c/dt\u003e\n   \u003cdd\u003eA pdf document that encloses plots to assess the quality of the recalibration\u003c/dd\u003e\n   \u003cdt style\u003d\"font-weight: normal\"\u003e-csv \u003ci\u003emy-report.csv\u003c/i\u003e\u003c/dt\u003e\n   \u003cdd\u003eA csv file that contains a table with all the data required to generate those plots\u003c/dd\u003e\n \u003c/dl\u003e\n\n \u003cp\u003eYou need to specify at least one of them.\u003c/p\u003e\n\n \u003ch3\u003eUsage examples\u003c/h3\u003e\n\n \u003ch4\u003ePlot a single recalibration table\u003c/h4\u003e\n \u003cpre\u003e\n   gatk AnalyzeCovariates \\\n     -bqsr recal1.table \\\n     -plots AnalyzeCovariates.pdf\n \u003c/pre\u003e\n\n \u003ch4\u003ePlot \"before\" (first pass) and \"after\" (second pass) recalibration tables to compare them\u003c/h4\u003e\n \u003cpre\u003e\n   gatk AnalyzeCovariates \\\n     -before recal1.table \\\n     -after recal2.table \\\n     -plots AnalyzeCovariates.pdf\n \u003c/pre\u003e\n\n \u003ch4\u003ePlot up to three recalibration tables for comparison\u003c/h4\u003e\n \u003cpre\u003e\n   gatk AnalyzeCovariates \\\n     -bqsr recal1.table \\\n     -before recal2.table \\\n     -after recal3.table \\\n     -plots AnalyzeCovariates.pdf\n \u003c/pre\u003e\n\n \u003ch3\u003eNotes\u003c/h3\u003e\n \u003cul\u003e\n     \u003cli\u003eSometimes you may want to compare recalibration tables where the \"after\" table was actually generated first. To\n suppress warnings about the dates of creation of the files, use the `--ignore-last-modification-times` argument.\u003c/li\u003e\n     \u003cli\u003eYou can ignore the before/after semantics completely if you like, but all tables must have been generated using\n the same parameters.\u003c/li\u003e\n \u003c/ul\u003e",
  "name": "AnalyzeCovariates",
  "group": "Diagnostics and Quality Control",
  "beta": false,
  "experimental": false
}