{
  "summary": "Call somatic SNVs and indels via local assembly of haplotypes",
  "arguments": [
    {
      "summary": "Minimum probability for a locus to be considered active.",
      "name": "--active-probability-threshold",
      "synonyms": "NA",
      "type": "double",
      "required": "no",
      "fulltext": "",
      "defaultValue": "0.002",
      "minValue": "-Infinity",
      "maxValue": "Infinity",
      "minRecValue": "NA",
      "maxRecValue": "NA",
      "kind": "advanced",
      "options": []
    },
    {
      "summary": "Output the raw activity profile results in IGV format",
      "name": "--activity-profile-out",
      "synonyms": "NA",
      "type": "String",
      "required": "no",
      "fulltext": "If provided, this walker will write out its activity profile (per bp probabilities of being active)\n to this file in the IGV formatted TAB deliminated output:\n\n http://www.broadinstitute.org/software/igv/IGV\n\n Intended to make debugging the activity profile calculations easier",
      "defaultValue": "null",
      "minValue": "NA",
      "maxValue": "NA",
      "minRecValue": "NA",
      "maxRecValue": "NA",
      "kind": "optional",
      "options": []
    },
    {
      "summary": "Initial base error rate estimate for adaptive pruning",
      "name": "--adaptive-pruning-initial-error-rate",
      "synonyms": "NA",
      "type": "double",
      "required": "no",
      "fulltext": "Initial base error rate guess for the probabilistic adaptive pruning model.  Results are not very sensitive to this\n parameter because it is only a starting point from which the algorithm discovers the true error rate.",
      "defaultValue": "0.001",
      "minValue": "-Infinity",
      "maxValue": "Infinity",
      "minRecValue": "NA",
      "maxRecValue": "NA",
      "kind": "advanced",
      "options": []
    },
    {
      "summary": "If true, adds a PG tag to created SAM/BAM/CRAM files.",
      "name": "--add-output-sam-program-record",
      "synonyms": "-add-output-sam-program-record",
      "type": "boolean",
      "required": "no",
      "fulltext": "",
      "defaultValue": "true",
      "minValue": "NA",
      "maxValue": "NA",
      "minRecValue": "NA",
      "maxRecValue": "NA",
      "kind": "common",
      "options": []
    },
    {
      "summary": "If true, adds a command line header line to created VCF files.",
      "name": "--add-output-vcf-command-line",
      "synonyms": "-add-output-vcf-command-line",
      "type": "boolean",
      "required": "no",
      "fulltext": "",
      "defaultValue": "true",
      "minValue": "NA",
      "maxValue": "NA",
      "minRecValue": "NA",
      "maxRecValue": "NA",
      "kind": "common",
      "options": []
    },
    {
      "summary": "Population allele fraction assigned to alleles not found in germline resource.  Please see docs/mutect/mutect2.pdf fora derivation of the default value.",
      "name": "--af-of-alleles-not-in-resource",
      "synonyms": "-default-af",
      "type": "double",
      "required": "no",
      "fulltext": "Population allele fraction assigned to alleles not found in germline resource.",
      "defaultValue": "-1.0",
      "minValue": "-Infinity",
      "maxValue": "Infinity",
      "minRecValue": "NA",
      "maxRecValue": "NA",
      "kind": "optional",
      "options": []
    },
    {
      "summary": "The set of alleles for which to force genotyping regardless of evidence",
      "name": "--alleles",
      "synonyms": "NA",
      "type": "FeatureInput[VariantContext]",
      "required": "no",
      "fulltext": "",
      "defaultValue": "null",
      "minValue": "NA",
      "maxValue": "NA",
      "minRecValue": "NA",
      "maxRecValue": "NA",
      "kind": "optional",
      "options": []
    },
    {
      "summary": "Allow graphs that have non-unique kmers in the reference",
      "name": "--allow-non-unique-kmers-in-ref",
      "synonyms": "NA",
      "type": "boolean",
      "required": "no",
      "fulltext": "By default, the program does not allow processing of reference sections that contain non-unique kmers. Disabling\n this check may cause problems in the assembly graph.",
      "defaultValue": "false",
      "minValue": "NA",
      "maxValue": "NA",
      "minRecValue": "NA",
      "maxRecValue": "NA",
      "kind": "advanced",
      "options": []
    },
    {
      "summary": "One or more specific annotations to add to variant calls",
      "name": "--annotation",
      "synonyms": "-A",
      "type": "List[String]",
      "required": "no",
      "fulltext": "Which annotations to include in variant calls in the output. These supplement annotations provided by annotation groups.",
      "defaultValue": "[]",
      "minValue": "NA",
      "maxValue": "NA",
      "minRecValue": "NA",
      "maxRecValue": "NA",
      "kind": "optional",
      "options": []
    },
    {
      "summary": "One or more groups of annotations to apply to variant calls",
      "name": "--annotation-group",
      "synonyms": "-G",
      "type": "List[String]",
      "required": "no",
      "fulltext": "Which groups of annotations to add to the output variant calls.\n Any requirements that are not met (e.g. failing to provide a pedigree file for a pedigree-based annotation) may cause the run to fail.",
      "defaultValue": "[]",
      "minValue": "NA",
      "maxValue": "NA",
      "minRecValue": "NA",
      "maxRecValue": "NA",
      "kind": "optional",
      "options": []
    },
    {
      "summary": "One or more specific annotations to exclude from variant calls",
      "name": "--annotations-to-exclude",
      "synonyms": "-AX",
      "type": "List[String]",
      "required": "no",
      "fulltext": "Which annotations to exclude from output in the variant calls.  Note that this argument has higher priority than the\n -A or -G arguments, so these annotations will be excluded even if they are explicitly included with the other\n options.",
      "defaultValue": "[]",
      "minValue": "NA",
      "maxValue": "NA",
      "minRecValue": "NA",
      "maxRecValue": "NA",
      "kind": "optional",
      "options": []
    },
    {
      "summary": "read one or more arguments files and add them to the command line",
      "name": "--arguments_file",
      "synonyms": "NA",
      "type": "List[File]",
      "required": "no",
      "fulltext": "",
      "defaultValue": "[]",
      "minValue": "NA",
      "maxValue": "NA",
      "minRecValue": "NA",
      "maxRecValue": "NA",
      "kind": "optional",
      "options": []
    },
    {
      "summary": "Output the assembly region to this IGV formatted file",
      "name": "--assembly-region-out",
      "synonyms": "NA",
      "type": "String",
      "required": "no",
      "fulltext": "If provided, this walker will write out its assembly regions\n to this file in the IGV formatted TAB-delimited output:\n\n http://www.broadinstitute.org/software/igv/IGV\n\n Intended to make debugging the active region calculations easier",
      "defaultValue": "null",
      "minValue": "NA",
      "maxValue": "NA",
      "minRecValue": "NA",
      "maxRecValue": "NA",
      "kind": "optional",
      "options": []
    },
    {
      "summary": "Number of additional bases of context to include around each assembly region",
      "name": "--assembly-region-padding",
      "synonyms": "NA",
      "type": "int",
      "required": "no",
      "fulltext": "",
      "defaultValue": "100",
      "minValue": "-Infinity",
      "maxValue": "Infinity",
      "minRecValue": "NA",
      "maxRecValue": "NA",
      "kind": "advanced",
      "options": []
    },
    {
      "summary": "File to which assembled haplotypes should be written",
      "name": "--bam-output",
      "synonyms": "-bamout",
      "type": "String",
      "required": "no",
      "fulltext": "The assembled haplotypes and locally realigned reads will be written as BAM to this file if requested.  Really\n for debugging purposes only. Note that the output here does not include uninformative reads so that not every\n input read is emitted to the bam.\n\n Turning on this mode may result in serious performance cost for the caller.  It\u0027s really only appropriate to\n use in specific areas where you want to better understand why the caller is making specific calls.\n\n The reads are written out containing an \"HC\" tag (integer) that encodes which haplotype each read best matches\n according to the haplotype caller\u0027s likelihood calculation.  The use of this tag is primarily intended\n to allow good coloring of reads in IGV.  Simply go to \"Color Alignments By \u003e Tag\" and enter \"HC\" to more\n easily see which reads go with these haplotype.\n\n Note that the haplotypes (called or all, depending on mode) are emitted as single reads covering the entire\n active region, coming from sample \"HC\" and a special read group called \"ArtificialHaplotype\". This will increase the\n pileup depth compared to what would be expected from the reads only, especially in complex regions.\n\n Note also that only reads that are actually informative about the haplotypes are emitted.  By informative we mean\n that there\u0027s a meaningful difference in the likelihood of the read coming from one haplotype compared to\n its next best haplotype.\n\n If multiple BAMs are passed as input to the tool (as is common for M2), then they will be combined in the bamout\n output and tagged with the appropriate sample names.\n\n The best way to visualize the output of this mode is with IGV.  Tell IGV to color the alignments by tag,\n and give it the \"HC\" tag, so you can see which reads support each haplotype.  Finally, you can tell IGV\n to group by sample, which will separate the potential haplotypes from the reads.  All of this can be seen in\n \u003ca href\u003d\"https://www.dropbox.com/s/xvy7sbxpf13x5bp/haplotypecaller%20bamout%20for%20docs.png\"\u003ethis screenshot\u003c/a\u003e",
      "defaultValue": "null",
      "minValue": "NA",
      "maxValue": "NA",
      "minRecValue": "NA",
      "maxRecValue": "NA",
      "kind": "advanced",
      "options": []
    },
    {
      "summary": "Which haplotypes should be written to the BAM",
      "name": "--bam-writer-type",
      "synonyms": "NA",
      "type": "WriterType",
      "required": "no",
      "fulltext": "The type of BAM output we want to see. This determines whether HC will write out all of the haplotypes it\n considered (top 128 max) or just the ones that were selected as alleles and assigned to samples.",
      "defaultValue": "CALLED_HAPLOTYPES",
      "minValue": "NA",
      "maxValue": "NA",
      "minRecValue": "NA",
      "maxRecValue": "NA",
      "kind": "advanced",
      "options": [
        {
          "summary": "A mode that\u0027s for method developers.  Writes out all of the possible\n haplotypes considered, as well as reads aligned to each",
          "name": "ALL_POSSIBLE_HAPLOTYPES"
        },
        {
          "summary": "A mode for users.  Writes out the reads aligned only to the called\n haplotypes.  Useful to understand why the caller is calling what it is",
          "name": "CALLED_HAPLOTYPES"
        }
      ]
    },
    {
      "summary": "Base qualities below this threshold will be reduced to the minimum (6)",
      "name": "--base-quality-score-threshold",
      "synonyms": "NA",
      "type": "byte",
      "required": "no",
      "fulltext": "Bases with a quality below this threshold will reduced to the minimum usable qualiy score (6).",
      "defaultValue": "18",
      "minValue": "-Infinity",
      "maxValue": "Infinity",
      "minRecValue": "NA",
      "maxRecValue": "NA",
      "kind": "optional",
      "options": []
    },
    {
      "summary": "Minimum depth to be considered callable for Mutect stats.  Does not affect genotyping.",
      "name": "--callable-depth",
      "synonyms": "NA",
      "type": "int",
      "required": "no",
      "fulltext": "",
      "defaultValue": "10",
      "minValue": "-Infinity",
      "maxValue": "Infinity",
      "minRecValue": "NA",
      "maxRecValue": "NA",
      "kind": "optional",
      "options": []
    },
    {
      "summary": "Size of the cloud-only prefetch buffer (in MB; 0 to disable). Defaults to cloudPrefetchBuffer if unset.",
      "name": "--cloud-index-prefetch-buffer",
      "synonyms": "-CIPB",
      "type": "int",
      "required": "no",
      "fulltext": "",
      "defaultValue": "-1",
      "minValue": "-Infinity",
      "maxValue": "Infinity",
      "minRecValue": "NA",
      "maxRecValue": "NA",
      "kind": "optional",
      "options": []
    },
    {
      "summary": "Size of the cloud-only prefetch buffer (in MB; 0 to disable).",
      "name": "--cloud-prefetch-buffer",
      "synonyms": "-CPB",
      "type": "int",
      "required": "no",
      "fulltext": "",
      "defaultValue": "40",
      "minValue": "-Infinity",
      "maxValue": "Infinity",
      "minRecValue": "NA",
      "maxRecValue": "NA",
      "kind": "optional",
      "options": []
    },
    {
      "summary": "If true, create a BAM/CRAM index when writing a coordinate-sorted BAM/CRAM file.",
      "name": "--create-output-bam-index",
      "synonyms": "-OBI",
      "type": "boolean",
      "required": "no",
      "fulltext": "",
      "defaultValue": "true",
      "minValue": "NA",
      "maxValue": "NA",
      "minRecValue": "NA",
      "maxRecValue": "NA",
      "kind": "common",
      "options": []
    },
    {
      "summary": "If true, create a MD5 digest for any BAM/SAM/CRAM file created",
      "name": "--create-output-bam-md5",
      "synonyms": "-OBM",
      "type": "boolean",
      "required": "no",
      "fulltext": "",
      "defaultValue": "false",
      "minValue": "NA",
      "maxValue": "NA",
      "minRecValue": "NA",
      "maxRecValue": "NA",
      "kind": "common",
      "options": []
    },
    {
      "summary": "If true, create a VCF index when writing a coordinate-sorted VCF file.",
      "name": "--create-output-variant-index",
      "synonyms": "-OVI",
      "type": "boolean",
      "required": "no",
      "fulltext": "",
      "defaultValue": "true",
      "minValue": "NA",
      "maxValue": "NA",
      "minRecValue": "NA",
      "maxRecValue": "NA",
      "kind": "common",
      "options": []
    },
    {
      "summary": "If true, create a a MD5 digest any VCF file created.",
      "name": "--create-output-variant-md5",
      "synonyms": "-OVM",
      "type": "boolean",
      "required": "no",
      "fulltext": "",
      "defaultValue": "false",
      "minValue": "NA",
      "maxValue": "NA",
      "minRecValue": "NA",
      "maxRecValue": "NA",
      "kind": "common",
      "options": []
    },
    {
      "summary": "Print out verbose debug information about each assembly region",
      "name": "--debug-assembly",
      "synonyms": "-debug",
      "type": "boolean",
      "required": "no",
      "fulltext": "",
      "defaultValue": "false",
      "minValue": "NA",
      "maxValue": "NA",
      "minRecValue": "NA",
      "maxRecValue": "NA",
      "kind": "advanced",
      "options": []
    },
    {
      "summary": "Disable the adaptive algorithm for pruning paths in the graph",
      "name": "--disable-adaptive-pruning",
      "synonyms": "NA",
      "type": "boolean",
      "required": "no",
      "fulltext": "A single edge multiplicity cutoff for pruning doesn\u0027t work in samples with variable depths, for example exomes\n and RNA.  This parameter disables the probabilistic algorithm for pruning the assembly graph that considers the\n likelihood that each chain in the graph comes from real variation, and instead uses a simple multiplicity cutoff.",
      "defaultValue": "false",
      "minValue": "NA",
      "maxValue": "NA",
      "minRecValue": "NA",
      "maxRecValue": "NA",
      "kind": "advanced",
      "options": []
    },
    {
      "summary": "If true, don\u0027t cache bam indexes, this will reduce memory requirements but may harm performance if many intervals are specified.  Caching is automatically disabled if there are no intervals specified.",
      "name": "--disable-bam-index-caching",
      "synonyms": "-DBIC",
      "type": "boolean",
      "required": "no",
      "fulltext": "",
      "defaultValue": "false",
      "minValue": "NA",
      "maxValue": "NA",
      "minRecValue": "NA",
      "maxRecValue": "NA",
      "kind": "optional",
      "options": []
    },
    {
      "summary": "Read filters to be disabled before analysis",
      "name": "--disable-read-filter",
      "synonyms": "-DF",
      "type": "List[String]",
      "required": "no",
      "fulltext": "",
      "defaultValue": "[]",
      "minValue": "NA",
      "maxValue": "NA",
      "minRecValue": "NA",
      "maxRecValue": "NA",
      "kind": "common",
      "options": []
    },
    {
      "summary": "If specified, do not check the sequence dictionaries from our inputs for compatibility. Use at your own risk!",
      "name": "--disable-sequence-dictionary-validation",
      "synonyms": "-disable-sequence-dictionary-validation",
      "type": "boolean",
      "required": "no",
      "fulltext": "",
      "defaultValue": "false",
      "minValue": "NA",
      "maxValue": "NA",
      "minRecValue": "NA",
      "maxRecValue": "NA",
      "kind": "optional",
      "options": []
    },
    {
      "summary": "Disable all tool default annotations",
      "name": "--disable-tool-default-annotations",
      "synonyms": "-disable-tool-default-annotations",
      "type": "boolean",
      "required": "no",
      "fulltext": "Hook allowing for the user to remove default annotations from the tool",
      "defaultValue": "false",
      "minValue": "NA",
      "maxValue": "NA",
      "minRecValue": "NA",
      "maxRecValue": "NA",
      "kind": "advanced",
      "options": []
    },
    {
      "summary": "Disable all tool default read filters (WARNING: many tools will not function correctly without their default read filters on)",
      "name": "--disable-tool-default-read-filters",
      "synonyms": "-disable-tool-default-read-filters",
      "type": "boolean",
      "required": "no",
      "fulltext": "",
      "defaultValue": "false",
      "minValue": "NA",
      "maxValue": "NA",
      "minRecValue": "NA",
      "maxRecValue": "NA",
      "kind": "common",
      "options": []
    },
    {
      "summary": "Disable iterating over kmer sizes when graph cycles are detected",
      "name": "--dont-increase-kmer-sizes-for-cycles",
      "synonyms": "NA",
      "type": "boolean",
      "required": "no",
      "fulltext": "When graph cycles are detected, the normal behavior is to increase kmer sizes iteratively until the cycles are\n resolved. Disabling this behavior may cause the program to give up on assembling the ActiveRegion.",
      "defaultValue": "false",
      "minValue": "NA",
      "maxValue": "NA",
      "minRecValue": "NA",
      "maxRecValue": "NA",
      "kind": "advanced",
      "options": []
    },
    {
      "summary": "If specified, we will not trim down the active region from the full region (active + extension) to just the active interval for genotyping",
      "name": "--dont-trim-active-regions",
      "synonyms": "NA",
      "type": "boolean",
      "required": "no",
      "fulltext": "",
      "defaultValue": "false",
      "minValue": "NA",
      "maxValue": "NA",
      "minRecValue": "NA",
      "maxRecValue": "NA",
      "kind": "advanced",
      "options": []
    },
    {
      "summary": "Do not analyze soft clipped bases in the reads",
      "name": "--dont-use-soft-clipped-bases",
      "synonyms": "NA",
      "type": "boolean",
      "required": "no",
      "fulltext": "",
      "defaultValue": "false",
      "minValue": "NA",
      "maxValue": "NA",
      "minRecValue": "NA",
      "maxRecValue": "NA",
      "kind": "advanced",
      "options": []
    },
    {
      "summary": "Downsample a pool of reads starting within a range of one or more bases.",
      "name": "--downsampling-stride",
      "synonyms": "-stride",
      "type": "int",
      "required": "no",
      "fulltext": "Downsample a pool of reads starting within a range of one or more bases.",
      "defaultValue": "1",
      "minValue": "-Infinity",
      "maxValue": "Infinity",
      "minRecValue": "NA",
      "maxRecValue": "NA",
      "kind": "optional",
      "options": []
    },
    {
      "summary": "(BETA feature) Mode for emitting reference confidence scores",
      "name": "--emit-ref-confidence",
      "synonyms": "-ERC",
      "type": "ReferenceConfidenceMode",
      "required": "no",
      "fulltext": "(BETA feature) The reference confidence mode makes it possible to emit a per-bp or summarized confidence estimate for a site being strictly homozygous-reference.\n This is similar to the HaplotypeCaller reference confidence/GVCF mode. See https://software.broadinstitute.org/gatk/documentation/article.php?id\u003d4017 for information about GVCFs.",
      "defaultValue": "NONE",
      "minValue": "NA",
      "maxValue": "NA",
      "minRecValue": "NA",
      "maxRecValue": "NA",
      "kind": "advanced",
      "options": [
        {
          "summary": "Regular calling without emitting reference confidence calls.",
          "name": "NONE"
        },
        {
          "summary": "Reference model emitted site by site.",
          "name": "BP_RESOLUTION"
        },
        {
          "summary": "Reference model emitted with condensed non-variant blocks, i.e. the GVCF format.",
          "name": "GVCF"
        }
      ]
    },
    {
      "summary": "Use all possible annotations (not for the faint of heart)",
      "name": "--enable-all-annotations",
      "synonyms": "NA",
      "type": "boolean",
      "required": "no",
      "fulltext": "You can use the -AX argument in combination with this one to exclude specific annotations. Note that some\n annotations may not be actually applied if they are not applicable to the data provided or if they are\n unavailable to the tool (e.g. there are several annotations that are currently not hooked up to\n HaplotypeCaller). At present no error or warning message will be provided, the annotation will simply be\n skipped silently. You can check the output VCF header to see which annotations were activated and thus might be applied (although\n this does not guarantee that the annotation was applied to all records in the VCF, since some annotations have\n additional requirements, e.g. minimum number of samples or heterozygous sites only -- see the documentation\n for individual annotations\u0027 requirements).",
      "defaultValue": "false",
      "minValue": "NA",
      "maxValue": "NA",
      "minRecValue": "NA",
      "maxRecValue": "NA",
      "kind": "advanced",
      "options": []
    },
    {
      "summary": "One or more genomic intervals to exclude from processing",
      "name": "--exclude-intervals",
      "synonyms": "-XL",
      "type": "List[String]",
      "required": "no",
      "fulltext": "Use this argument to exclude certain parts of the genome from the analysis (like -L, but the opposite).\n This argument can be specified multiple times. You can use samtools-style intervals either explicitly on the\n command line (e.g. -XL 1 or -XL 1:100-200) or by loading in a file containing a list of intervals\n (e.g. -XL myFile.intervals).",
      "defaultValue": "[]",
      "minValue": "NA",
      "maxValue": "NA",
      "minRecValue": "NA",
      "maxRecValue": "NA",
      "kind": "common",
      "options": []
    },
    {
      "summary": "sites with depth higher than this value will be grouped",
      "name": "--f1r2-max-depth",
      "synonyms": "NA",
      "type": "int",
      "required": "no",
      "fulltext": "",
      "defaultValue": "200",
      "minValue": "-Infinity",
      "maxValue": "Infinity",
      "minRecValue": "NA",
      "maxRecValue": "NA",
      "kind": "optional",
      "options": []
    },
    {
      "summary": "skip sites with median mapping quality below this value",
      "name": "--f1r2-median-mq",
      "synonyms": "NA",
      "type": "int",
      "required": "no",
      "fulltext": "",
      "defaultValue": "50",
      "minValue": "-Infinity",
      "maxValue": "Infinity",
      "minRecValue": "NA",
      "maxRecValue": "NA",
      "kind": "optional",
      "options": []
    },
    {
      "summary": "exclude bases below this quality from pileup",
      "name": "--f1r2-min-bq",
      "synonyms": "NA",
      "type": "int",
      "required": "no",
      "fulltext": "",
      "defaultValue": "20",
      "minValue": "-Infinity",
      "maxValue": "Infinity",
      "minRecValue": "NA",
      "maxRecValue": "NA",
      "kind": "optional",
      "options": []
    },
    {
      "summary": "If specified, collect F1R2 counts and output files into this tar.gz file",
      "name": "--f1r2-tar-gz",
      "synonyms": "NA",
      "type": "File",
      "required": "no",
      "fulltext": "",
      "defaultValue": "null",
      "minValue": "NA",
      "maxValue": "NA",
      "minRecValue": "NA",
      "maxRecValue": "NA",
      "kind": "optional",
      "options": []
    },
    {
      "summary": "If provided, all regions will be marked as active",
      "name": "--force-active",
      "synonyms": "NA",
      "type": "boolean",
      "required": "no",
      "fulltext": "",
      "defaultValue": "false",
      "minValue": "NA",
      "maxValue": "NA",
      "minRecValue": "NA",
      "maxRecValue": "NA",
      "kind": "advanced",
      "options": []
    },
    {
      "summary": "Samples representing the population \"founders\"",
      "name": "--founder-id",
      "synonyms": "-founder-id",
      "type": "List[String]",
      "required": "no",
      "fulltext": "",
      "defaultValue": "[]",
      "minValue": "NA",
      "maxValue": "NA",
      "minRecValue": "NA",
      "maxRecValue": "NA",
      "kind": "optional",
      "options": []
    },
    {
      "summary": "A configuration file to use with the GATK.",
      "name": "--gatk-config-file",
      "synonyms": "NA",
      "type": "String",
      "required": "no",
      "fulltext": "",
      "defaultValue": "null",
      "minValue": "NA",
      "maxValue": "NA",
      "minRecValue": "NA",
      "maxRecValue": "NA",
      "kind": "common",
      "options": []
    },
    {
      "summary": "If the GCS bucket channel errors out, how many times it will attempt to re-initiate the connection",
      "name": "--gcs-max-retries",
      "synonyms": "-gcs-retries",
      "type": "int",
      "required": "no",
      "fulltext": "",
      "defaultValue": "20",
      "minValue": "-Infinity",
      "maxValue": "Infinity",
      "minRecValue": "NA",
      "maxRecValue": "NA",
      "kind": "optional",
      "options": []
    },
    {
      "summary": "Project to bill when accessing \"requester pays\" buckets. If unset, these buckets cannot be accessed.",
      "name": "--gcs-project-for-requester-pays",
      "synonyms": "NA",
      "type": "String",
      "required": "no",
      "fulltext": "",
      "defaultValue": "\"\"",
      "minValue": "NA",
      "maxValue": "NA",
      "minRecValue": "NA",
      "maxRecValue": "NA",
      "kind": "optional",
      "options": []
    },
    {
      "summary": "Whether to force genotype even filtered alleles",
      "name": "--genotype-filtered-alleles",
      "synonyms": "NA",
      "type": "boolean",
      "required": "no",
      "fulltext": "",
      "defaultValue": "false",
      "minValue": "NA",
      "maxValue": "NA",
      "minRecValue": "NA",
      "maxRecValue": "NA",
      "kind": "advanced",
      "options": []
    },
    {
      "summary": "(EXPERIMENTAL) Call all apparent germline site even though they will ultimately be filtered.",
      "name": "--genotype-germline-sites",
      "synonyms": "NA",
      "type": "boolean",
      "required": "no",
      "fulltext": "Usually we exclude sites in the panel of normals from active region determination, which saves time.  Setting this to true\n causes Mutect to produce a variant call at these sites.  This call will still be filtered, but it shows up in the vcf.",
      "defaultValue": "false",
      "minValue": "NA",
      "maxValue": "NA",
      "minRecValue": "NA",
      "maxRecValue": "NA",
      "kind": "optional",
      "options": []
    },
    {
      "summary": "Call sites in the PoN even though they will ultimately be filtered.",
      "name": "--genotype-pon-sites",
      "synonyms": "NA",
      "type": "boolean",
      "required": "no",
      "fulltext": "Usually we exclude sites in the panel of normals from active region determination, which saves time.  Setting this to true\n causes Mutect to produce a variant call at these sites.  This call will still be filtered, but it shows up in the vcf.",
      "defaultValue": "false",
      "minValue": "NA",
      "maxValue": "NA",
      "minRecValue": "NA",
      "maxRecValue": "NA",
      "kind": "optional",
      "options": []
    },
    {
      "summary": "Population vcf of germline sequencing containing allele fractions.",
      "name": "--germline-resource",
      "synonyms": "NA",
      "type": "FeatureInput[VariantContext]",
      "required": "no",
      "fulltext": "A resource, such as gnomAD, containing population allele frequencies of common and rare variants.",
      "defaultValue": "null",
      "minValue": "NA",
      "maxValue": "NA",
      "minRecValue": "NA",
      "maxRecValue": "NA",
      "kind": "optional",
      "options": []
    },
    {
      "summary": "Write debug assembly graph information to this file",
      "name": "--graph-output",
      "synonyms": "-graph",
      "type": "String",
      "required": "no",
      "fulltext": "This argument is meant for debugging and is not immediately useful for normal analysis use.",
      "defaultValue": "null",
      "minValue": "NA",
      "maxValue": "NA",
      "minRecValue": "NA",
      "maxRecValue": "NA",
      "kind": "optional",
      "options": []
    },
    {
      "summary": "Exclusive upper bounds for reference confidence LOD bands (must be specified in increasing order)",
      "name": "--gvcf-lod-band",
      "synonyms": "-LODB",
      "type": "List[Double]",
      "required": "no",
      "fulltext": "When Mutect2 is run in reference confidence mode with banding compression enabled (-ERC GVCF), homozygous-reference\n sites are compressed into bands of similar tumor LOD (TLOD) that are emitted as a single VCF record. See\n the FAQ documentation for more details about the GVCF format.\n \u003cp\u003e\n This argument allows you to set the TLOD bands. Mutect2 expects a list of strictly increasing TLOD values\n that will act as exclusive upper bounds for the TLOD bands. To pass multiple values,\n you provide them one by one with the argument, as in `-LODB -3.0 -LODB -2.0 -LODB -1.0`\n (this would set the TLOD bands to be `[-Inf, -3.0), [-3.0, -2.0), [-2.0, -1.0), [-1.0, Inf]`, for example).\n \u003cp\u003e\n Note that, unlike the GQ used by HaplotypeCaller GVCFs, here the reference calls with the highest confidence are the most negative.",
      "defaultValue": "[-2.5, -2.0, -1.5, -1.0, -0.5, 0.0, 0.5, 1.0]",
      "minValue": "NA",
      "maxValue": "NA",
      "minRecValue": "NA",
      "maxRecValue": "NA",
      "kind": "advanced",
      "options": []
    },
    {
      "summary": "display the help message",
      "name": "--help",
      "synonyms": "-h",
      "type": "boolean",
      "required": "no",
      "fulltext": "",
      "defaultValue": "false",
      "minValue": "NA",
      "maxValue": "NA",
      "minRecValue": "NA",
      "maxRecValue": "NA",
      "kind": "optional",
      "options": []
    },
    {
      "summary": "Turn off read transformer that clips artifacts associated with end repair insertions near inverted tandem repeats.",
      "name": "--ignore-itr-artifacts",
      "synonyms": "NA",
      "type": "boolean",
      "required": "no",
      "fulltext": "When opposite ends of a fragment are inverted tandem repeats of each other, the sequence past one end may be copied onto the other\n during library prep.  By default, Mutect2 identifies and clips these artifacts, which are especially prevalent when\n DNA is damaged as in the case of FFPE samples and ancient DNA.",
      "defaultValue": "false",
      "minValue": "NA",
      "maxValue": "NA",
      "minRecValue": "NA",
      "maxRecValue": "NA",
      "kind": "optional",
      "options": []
    },
    {
      "summary": "LOD threshold to consider pileup active.",
      "name": "--initial-tumor-lod",
      "synonyms": "-init-lod",
      "type": "double",
      "required": "no",
      "fulltext": "Only variants with estimated tumor LODs exceeding this threshold will be considered active.",
      "defaultValue": "2.0",
      "minValue": "-Infinity",
      "maxValue": "Infinity",
      "minRecValue": "NA",
      "maxRecValue": "NA",
      "kind": "optional",
      "options": []
    },
    {
      "summary": "BAM/SAM/CRAM file containing reads",
      "name": "--input",
      "synonyms": "-I",
      "type": "List[String]",
      "required": "yes",
      "fulltext": "",
      "defaultValue": "[]",
      "minValue": "NA",
      "maxValue": "NA",
      "minRecValue": "NA",
      "maxRecValue": "NA",
      "kind": "required",
      "options": []
    },
    {
      "summary": "Amount of padding (in bp) to add to each interval you are excluding.",
      "name": "--interval-exclusion-padding",
      "synonyms": "-ixp",
      "type": "int",
      "required": "no",
      "fulltext": "Use this to add padding to the intervals specified using -XL. For example, \u0027-XL 1:100\u0027 with a\n padding value of 20 would turn into \u0027-XL 1:80-120\u0027. This is typically used to add padding around targets when\n analyzing exomes.",
      "defaultValue": "0",
      "minValue": "-Infinity",
      "maxValue": "Infinity",
      "minRecValue": "NA",
      "maxRecValue": "NA",
      "kind": "common",
      "options": []
    },
    {
      "summary": "Interval merging rule for abutting intervals",
      "name": "--interval-merging-rule",
      "synonyms": "-imr",
      "type": "IntervalMergingRule",
      "required": "no",
      "fulltext": "By default, the program merges abutting intervals (i.e. intervals that are directly side-by-side but do not\n actually overlap) into a single continuous interval. However you can change this behavior if you want them to be\n treated as separate intervals instead.",
      "defaultValue": "ALL",
      "minValue": "NA",
      "maxValue": "NA",
      "minRecValue": "NA",
      "maxRecValue": "NA",
      "kind": "optional",
      "options": [
        {
          "summary": "",
          "name": "ALL"
        },
        {
          "summary": "",
          "name": "OVERLAPPING_ONLY"
        }
      ]
    },
    {
      "summary": "Amount of padding (in bp) to add to each interval you are including.",
      "name": "--interval-padding",
      "synonyms": "-ip",
      "type": "int",
      "required": "no",
      "fulltext": "Use this to add padding to the intervals specified using -L. For example, \u0027-L 1:100\u0027 with a\n padding value of 20 would turn into \u0027-L 1:80-120\u0027. This is typically used to add padding around targets when\n analyzing exomes.",
      "defaultValue": "0",
      "minValue": "-Infinity",
      "maxValue": "Infinity",
      "minRecValue": "NA",
      "maxRecValue": "NA",
      "kind": "common",
      "options": []
    },
    {
      "summary": "Set merging approach to use for combining interval inputs",
      "name": "--interval-set-rule",
      "synonyms": "-isr",
      "type": "IntervalSetRule",
      "required": "no",
      "fulltext": "By default, the program will take the UNION of all intervals specified using -L and/or -XL. However, you can\n change this setting for -L, for example if you want to take the INTERSECTION of the sets instead. E.g. to\n perform the analysis only on chromosome 1 exomes, you could specify -L exomes.intervals -L 1 --interval-set-rule\n INTERSECTION. However, it is not possible to modify the merging approach for intervals passed using -XL (they will\n always be merged using UNION).\n\n Note that if you specify both -L and -XL, the -XL interval set will be subtracted from the -L interval set.",
      "defaultValue": "UNION",
      "minValue": "NA",
      "maxValue": "NA",
      "minRecValue": "NA",
      "maxRecValue": "NA",
      "kind": "common",
      "options": [
        {
          "summary": "Take the union of all intervals",
          "name": "UNION"
        },
        {
          "summary": "Take the intersection of intervals (the subset that overlaps all intervals specified)",
          "name": "INTERSECTION"
        }
      ]
    },
    {
      "summary": "One or more genomic intervals over which to operate",
      "name": "--intervals",
      "synonyms": "-L",
      "type": "List[String]",
      "required": "no",
      "fulltext": "",
      "defaultValue": "[]",
      "minValue": "NA",
      "maxValue": "NA",
      "minRecValue": "NA",
      "maxRecValue": "NA",
      "kind": "optional",
      "options": []
    },
    {
      "summary": "Kmer size to use in the read threading assembler",
      "name": "--kmer-size",
      "synonyms": "NA",
      "type": "List[Integer]",
      "required": "no",
      "fulltext": "Multiple kmer sizes can be specified, using e.g. `--kmer-size 10 --kmer-size 25`.",
      "defaultValue": "[10, 25]",
      "minValue": "NA",
      "maxValue": "NA",
      "minRecValue": "NA",
      "maxRecValue": "NA",
      "kind": "advanced",
      "options": []
    },
    {
      "summary": "Lenient processing of VCF files",
      "name": "--lenient",
      "synonyms": "-LE",
      "type": "boolean",
      "required": "no",
      "fulltext": "",
      "defaultValue": "false",
      "minValue": "NA",
      "maxValue": "NA",
      "minRecValue": "NA",
      "maxRecValue": "NA",
      "kind": "common",
      "options": []
    },
    {
      "summary": "Maximum size of an assembly region",
      "name": "--max-assembly-region-size",
      "synonyms": "NA",
      "type": "int",
      "required": "no",
      "fulltext": "",
      "defaultValue": "300",
      "minValue": "-Infinity",
      "maxValue": "Infinity",
      "minRecValue": "NA",
      "maxRecValue": "NA",
      "kind": "advanced",
      "options": []
    },
    {
      "summary": "Two or more phased substitutions separated by this distance or less are merged into MNPs.",
      "name": "--max-mnp-distance",
      "synonyms": "-mnp-dist",
      "type": "int",
      "required": "no",
      "fulltext": "Two or more phased substitutions separated by this distance or less are merged into MNPs.",
      "defaultValue": "1",
      "minValue": "-Infinity",
      "maxValue": "Infinity",
      "minRecValue": "NA",
      "maxRecValue": "NA",
      "kind": "advanced",
      "options": []
    },
    {
      "summary": "Maximum number of haplotypes to consider for your population",
      "name": "--max-num-haplotypes-in-population",
      "synonyms": "NA",
      "type": "int",
      "required": "no",
      "fulltext": "The assembly graph can be quite complex, and could imply a very large number of possible haplotypes.  Each haplotype\n considered requires N PairHMM evaluations if there are N reads across all samples.  In order to control the\n run of the haplotype caller we only take maxNumHaplotypesInPopulation paths from the graph, in order of their\n weights, no matter how many paths are possible to generate from the graph.  Putting this number too low\n will result in dropping true variation because paths that include the real variant are not even considered.\n You can consider increasing this number when calling organisms with high heterozygosity.",
      "defaultValue": "128",
      "minValue": "-Infinity",
      "maxValue": "Infinity",
      "minRecValue": "NA",
      "maxRecValue": "NA",
      "kind": "advanced",
      "options": []
    },
    {
      "summary": "Maximum population allele frequency in tumor-only mode.",
      "name": "--max-population-af",
      "synonyms": "-max-af",
      "type": "double",
      "required": "no",
      "fulltext": "In tumor-only mode, we discard variants with population allele frequencies greater than this threshold.",
      "defaultValue": "0.01",
      "minValue": "-Infinity",
      "maxValue": "Infinity",
      "minRecValue": "NA",
      "maxRecValue": "NA",
      "kind": "optional",
      "options": []
    },
    {
      "summary": "Upper limit on how many bases away probability mass can be moved around when calculating the boundaries between active and inactive assembly regions",
      "name": "--max-prob-propagation-distance",
      "synonyms": "NA",
      "type": "int",
      "required": "no",
      "fulltext": "",
      "defaultValue": "50",
      "minValue": "-Infinity",
      "maxValue": "Infinity",
      "minRecValue": "NA",
      "maxRecValue": "NA",
      "kind": "advanced",
      "options": []
    },
    {
      "summary": "Maximum number of reads to retain per alignment start position. Reads above this threshold will be downsampled. Set to 0 to disable.",
      "name": "--max-reads-per-alignment-start",
      "synonyms": "NA",
      "type": "int",
      "required": "no",
      "fulltext": "",
      "defaultValue": "50",
      "minValue": "-Infinity",
      "maxValue": "Infinity",
      "minRecValue": "NA",
      "maxRecValue": "NA",
      "kind": "optional",
      "options": []
    },
    {
      "summary": "Maximum number of suspicious reads (mediocre mapping quality or too many substitutions) allowed in a downsampling stride.  Set to 0 to disable.",
      "name": "--max-suspicious-reads-per-alignment-start",
      "synonyms": "NA",
      "type": "int",
      "required": "no",
      "fulltext": "Maximum number of suspicious reads (mediocre mapping quality or too many substitutions) allowed in a downsampling stride.",
      "defaultValue": "0",
      "minValue": "-Infinity",
      "maxValue": "Infinity",
      "minRecValue": "NA",
      "maxRecValue": "NA",
      "kind": "advanced",
      "options": []
    },
    {
      "summary": "Maximum number of variants in graph the adaptive pruner will allow",
      "name": "--max-unpruned-variants",
      "synonyms": "NA",
      "type": "int",
      "required": "no",
      "fulltext": "The maximum number of variants in graph the adaptive pruner will allow",
      "defaultValue": "100",
      "minValue": "-Infinity",
      "maxValue": "Infinity",
      "minRecValue": "NA",
      "maxRecValue": "NA",
      "kind": "advanced",
      "options": []
    },
    {
      "summary": "Minimum size of an assembly region",
      "name": "--min-assembly-region-size",
      "synonyms": "NA",
      "type": "int",
      "required": "no",
      "fulltext": "",
      "defaultValue": "50",
      "minValue": "-Infinity",
      "maxValue": "Infinity",
      "minRecValue": "NA",
      "maxRecValue": "NA",
      "kind": "advanced",
      "options": []
    },
    {
      "summary": "Minimum base quality required to consider a base for calling",
      "name": "--min-base-quality-score",
      "synonyms": "-mbq",
      "type": "byte",
      "required": "no",
      "fulltext": "Bases with a quality below this threshold will not be used for calling.",
      "defaultValue": "10",
      "minValue": "-Infinity",
      "maxValue": "Infinity",
      "minRecValue": "NA",
      "maxRecValue": "NA",
      "kind": "optional",
      "options": []
    },
    {
      "summary": "Minimum length of a dangling branch to attempt recovery",
      "name": "--min-dangling-branch-length",
      "synonyms": "NA",
      "type": "int",
      "required": "no",
      "fulltext": "When constructing the assembly graph we are often left with \"dangling\" branches.  The assembly engine attempts to rescue these branches\n by merging them back into the main graph.  This argument describes the minimum length of a dangling branch needed for the engine to\n try to rescue it.  A smaller number here will lead to higher sensitivity to real variation but also to a higher number of false positives.",
      "defaultValue": "4",
      "minValue": "-Infinity",
      "maxValue": "Infinity",
      "minRecValue": "NA",
      "maxRecValue": "NA",
      "kind": "advanced",
      "options": []
    },
    {
      "summary": "Minimum support to not prune paths in the graph",
      "name": "--min-pruning",
      "synonyms": "NA",
      "type": "int",
      "required": "no",
      "fulltext": "Paths with fewer supporting kmers than the specified threshold will be pruned from the graph.\n\n Be aware that this argument can dramatically affect the results of variant calling and should only be used with great caution.\n Using a prune factor of 1 (or below) will prevent any pruning from the graph, which is generally not ideal; it can make the\n calling much slower and even less accurate (because it can prevent effective merging of \"tails\" in the graph).  Higher values\n tend to make the calling much faster, but also lowers the sensitivity of the results (because it ultimately requires higher\n depth to produce calls).",
      "defaultValue": "2",
      "minValue": "-Infinity",
      "maxValue": "Infinity",
      "minRecValue": "NA",
      "maxRecValue": "NA",
      "kind": "advanced",
      "options": []
    },
    {
      "summary": "Lower bound of variant allele fractions to consider when calculating variant LOD",
      "name": "--minimum-allele-fraction",
      "synonyms": "-min-AF",
      "type": "double",
      "required": "no",
      "fulltext": "",
      "defaultValue": "0.0",
      "minValue": "-Infinity",
      "maxValue": "Infinity",
      "minRecValue": "NA",
      "maxRecValue": "NA",
      "kind": "advanced",
      "options": []
    },
    {
      "summary": "Mitochondria mode sets emission and initial LODs to 0.",
      "name": "--mitochondria-mode",
      "synonyms": "NA",
      "type": "Boolean",
      "required": "no",
      "fulltext": "Mitochondria mode changes default values for --tumor-lod-to-emit and --initial-tumor-lod to 0 to increase sensitivity.\n --tumor-sample is also not explicitly required in mitochondria mode since a single sample bam is expected as input.\n Mitochondria mode is also required in FilterMutectCalls if used here.",
      "defaultValue": "false",
      "minValue": "NA",
      "maxValue": "NA",
      "minRecValue": "NA",
      "maxRecValue": "NA",
      "kind": "optional",
      "options": []
    },
    {
      "summary": "How many threads should a native pairHMM implementation use",
      "name": "--native-pair-hmm-threads",
      "synonyms": "NA",
      "type": "int",
      "required": "no",
      "fulltext": "",
      "defaultValue": "4",
      "minValue": "-Infinity",
      "maxValue": "Infinity",
      "minRecValue": "NA",
      "maxRecValue": "NA",
      "kind": "optional",
      "options": []
    },
    {
      "summary": "use double precision in the native pairHmm. This is slower but matches the java implementation better",
      "name": "--native-pair-hmm-use-double-precision",
      "synonyms": "NA",
      "type": "boolean",
      "required": "no",
      "fulltext": "",
      "defaultValue": "false",
      "minValue": "NA",
      "maxValue": "NA",
      "minRecValue": "NA",
      "maxRecValue": "NA",
      "kind": "optional",
      "options": []
    },
    {
      "summary": "LOD threshold for calling normal variant non-germline.",
      "name": "--normal-lod",
      "synonyms": "NA",
      "type": "double",
      "required": "no",
      "fulltext": "This is a measure of the minimum evidence to support that a variant observed in the tumor is not also present in the normal.\n Applies to normal data in a tumor with matched normal analysis. The default has been tuned for diploid somatic analyses.\n It is unlikely such analyses will require changing the default value. Increasing the parameter may increase the sensitivity of somatic calling,\n but may also increase calling false positive, i.e. germline, variants.",
      "defaultValue": "2.2",
      "minValue": "-Infinity",
      "maxValue": "Infinity",
      "minRecValue": "NA",
      "maxRecValue": "NA",
      "kind": "optional",
      "options": []
    },
    {
      "summary": "BAM sample name of normal(s), if any.  May be URL-encoded as output by GetSampleName with -encode argument.",
      "name": "--normal-sample",
      "synonyms": "-normal",
      "type": "List[String]",
      "required": "no",
      "fulltext": "",
      "defaultValue": "[]",
      "minValue": "NA",
      "maxValue": "NA",
      "minRecValue": "NA",
      "maxRecValue": "NA",
      "kind": "optional",
      "options": []
    },
    {
      "summary": "Number of samples that must pass the minPruning threshold",
      "name": "--num-pruning-samples",
      "synonyms": "NA",
      "type": "int",
      "required": "no",
      "fulltext": "If fewer samples than the specified number pass the minPruning threshold for a given path, that path will be eliminated from the graph.",
      "defaultValue": "1",
      "minValue": "-Infinity",
      "maxValue": "Infinity",
      "minRecValue": "NA",
      "maxRecValue": "NA",
      "kind": "advanced",
      "options": []
    },
    {
      "summary": "File to which variants should be written",
      "name": "--output",
      "synonyms": "-O",
      "type": "File",
      "required": "yes",
      "fulltext": "",
      "defaultValue": "null",
      "minValue": "NA",
      "maxValue": "NA",
      "minRecValue": "NA",
      "maxRecValue": "NA",
      "kind": "required",
      "options": []
    },
    {
      "summary": "Flat gap continuation penalty for use in the Pair HMM",
      "name": "--pair-hmm-gap-continuation-penalty",
      "synonyms": "NA",
      "type": "int",
      "required": "no",
      "fulltext": "",
      "defaultValue": "10",
      "minValue": "-Infinity",
      "maxValue": "Infinity",
      "minRecValue": "NA",
      "maxRecValue": "NA",
      "kind": "advanced",
      "options": []
    },
    {
      "summary": "The PairHMM implementation to use for genotype likelihood calculations",
      "name": "--pair-hmm-implementation",
      "synonyms": "-pairHMM",
      "type": "Implementation",
      "required": "no",
      "fulltext": "The PairHMM implementation to use for genotype likelihood calculations. The various implementations balance a tradeoff of accuracy and runtime.",
      "defaultValue": "FASTEST_AVAILABLE",
      "minValue": "NA",
      "maxValue": "NA",
      "minRecValue": "NA",
      "maxRecValue": "NA",
      "kind": "advanced",
      "options": [
        {
          "summary": "",
          "name": "EXACT"
        },
        {
          "summary": "",
          "name": "ORIGINAL"
        },
        {
          "summary": "",
          "name": "LOGLESS_CACHING"
        },
        {
          "summary": "",
          "name": "AVX_LOGLESS_CACHING"
        },
        {
          "summary": "",
          "name": "AVX_LOGLESS_CACHING_OMP"
        },
        {
          "summary": "",
          "name": "EXPERIMENTAL_FPGA_LOGLESS_CACHING"
        },
        {
          "summary": "",
          "name": "FASTEST_AVAILABLE"
        }
      ]
    },
    {
      "summary": "VCF file of sites observed in normal.",
      "name": "--panel-of-normals",
      "synonyms": "-pon",
      "type": "FeatureInput[VariantContext]",
      "required": "no",
      "fulltext": "A panel of normals can be a useful (optional) input to help filter out commonly seen sequencing noise that may appear as low allele-fraction somatic variants.",
      "defaultValue": "null",
      "minValue": "NA",
      "maxValue": "NA",
      "minRecValue": "NA",
      "maxRecValue": "NA",
      "kind": "optional",
      "options": []
    },
    {
      "summary": "The PCR indel model to use",
      "name": "--pcr-indel-model",
      "synonyms": "NA",
      "type": "PCRErrorModel",
      "required": "no",
      "fulltext": "When calculating the likelihood of variants, we can try to correct for PCR errors that cause indel artifacts.\n The correction is based on the reference context, and acts specifically around repetitive sequences that tend\n to cause PCR errors). The variant likelihoods are penalized in increasing scale as the context around a\n putative indel is more repetitive (e.g. long homopolymer). The correction can be disabling by specifying\n \u0027-pcrModel NONE\u0027; in that case the default base insertion/deletion qualities will be used (or taken from the\n read if generated through the BaseRecalibrator). \u003cb\u003eVERY IMPORTANT: when using PCR-free sequencing data we\n definitely recommend setting this argument to NONE\u003c/b\u003e.",
      "defaultValue": "CONSERVATIVE",
      "minValue": "NA",
      "maxValue": "NA",
      "minRecValue": "NA",
      "maxRecValue": "NA",
      "kind": "advanced",
      "options": [
        {
          "summary": "no specialized PCR error model will be applied; if base insertion/deletion qualities are present they will be used",
          "name": "NONE"
        },
        {
          "summary": "a most aggressive model will be applied that sacrifices true positives in order to remove more false positives",
          "name": "HOSTILE"
        },
        {
          "summary": "a more aggressive model will be applied that sacrifices true positives in order to remove more false positives",
          "name": "AGGRESSIVE"
        },
        {
          "summary": "a less aggressive model will be applied that tries to maintain a high true positive rate at the expense of allowing more false positives",
          "name": "CONSERVATIVE"
        }
      ]
    },
    {
      "summary": "Phred-scaled PCR SNV qual for overlapping fragments",
      "name": "--pcr-indel-qual",
      "synonyms": "NA",
      "type": "int",
      "required": "no",
      "fulltext": "",
      "defaultValue": "40",
      "minValue": "-Infinity",
      "maxValue": "Infinity",
      "minRecValue": "NA",
      "maxRecValue": "NA",
      "kind": "optional",
      "options": []
    },
    {
      "summary": "Phred-scaled PCR SNV qual for overlapping fragments",
      "name": "--pcr-snv-qual",
      "synonyms": "NA",
      "type": "int",
      "required": "no",
      "fulltext": "",
      "defaultValue": "40",
      "minValue": "-Infinity",
      "maxValue": "Infinity",
      "minRecValue": "NA",
      "maxRecValue": "NA",
      "kind": "optional",
      "options": []
    },
    {
      "summary": "Pedigree file for determining the population \"founders\"",
      "name": "--pedigree",
      "synonyms": "-ped",
      "type": "File",
      "required": "no",
      "fulltext": "",
      "defaultValue": "null",
      "minValue": "NA",
      "maxValue": "NA",
      "minRecValue": "NA",
      "maxRecValue": "NA",
      "kind": "optional",
      "options": []
    },
    {
      "summary": "The global assumed mismapping rate for reads",
      "name": "--phred-scaled-global-read-mismapping-rate",
      "synonyms": "NA",
      "type": "int",
      "required": "no",
      "fulltext": "The phredScaledGlobalReadMismappingRate reflects the average global mismapping rate of all reads, regardless of their\n mapping quality.  This term effects the probability that a read originated from the reference haplotype, regardless of\n its edit distance from the reference, in that the read could have originated from the reference haplotype but\n from another location in the genome.  Suppose a read has many mismatches from the reference, say like 5, but\n has a very high mapping quality of 60.  Without this parameter, the read would contribute 5 * Q30 evidence\n in favor of its 5 mismatch haplotype compared to reference, potentially enough to make a call off that single\n read for all of these events.  With this parameter set to Q30, though, the maximum evidence against any haplotype\n that this (and any) read could contribute is Q30.\n\n Set this term to any negative number to turn off the global mapping rate.",
      "defaultValue": "45",
      "minValue": "-Infinity",
      "maxValue": "Infinity",
      "minRecValue": "NA",
      "maxRecValue": "NA",
      "kind": "advanced",
      "options": []
    },
    {
      "summary": "Log-10 likelihood ratio threshold for adaptive pruning algorithm",
      "name": "--pruning-lod-threshold",
      "synonyms": "NA",
      "type": "double",
      "required": "no",
      "fulltext": "Log-10 likelihood ratio threshold for adaptive pruning algorithm.",
      "defaultValue": "1.0",
      "minValue": "-Infinity",
      "maxValue": "Infinity",
      "minRecValue": "NA",
      "maxRecValue": "NA",
      "kind": "advanced",
      "options": []
    },
    {
      "summary": "Whether to suppress job-summary info on System.err.",
      "name": "--QUIET",
      "synonyms": "NA",
      "type": "Boolean",
      "required": "no",
      "fulltext": "",
      "defaultValue": "false",
      "minValue": "NA",
      "maxValue": "NA",
      "minRecValue": "NA",
      "maxRecValue": "NA",
      "kind": "common",
      "options": []
    },
    {
      "summary": "Read filters to be applied before analysis",
      "name": "--read-filter",
      "synonyms": "-RF",
      "type": "List[String]",
      "required": "no",
      "fulltext": "",
      "defaultValue": "[]",
      "minValue": "NA",
      "maxValue": "NA",
      "minRecValue": "NA",
      "maxRecValue": "NA",
      "kind": "common",
      "options": []
    },
    {
      "summary": "Indices to use for the read inputs. If specified, an index must be provided for every read input and in the same order as the read inputs. If this argument is not specified, the path to the index for each input will be inferred automatically.",
      "name": "--read-index",
      "synonyms": "-read-index",
      "type": "List[String]",
      "required": "no",
      "fulltext": "",
      "defaultValue": "[]",
      "minValue": "NA",
      "maxValue": "NA",
      "minRecValue": "NA",
      "maxRecValue": "NA",
      "kind": "common",
      "options": []
    },
    {
      "summary": "Validation stringency for all SAM/BAM/CRAM/SRA files read by this program.  The default stringency value SILENT can improve performance when processing a BAM file in which variable-length data (read, qualities, tags) do not otherwise need to be decoded.",
      "name": "--read-validation-stringency",
      "synonyms": "-VS",
      "type": "ValidationStringency",
      "required": "no",
      "fulltext": "",
      "defaultValue": "SILENT",
      "minValue": "NA",
      "maxValue": "NA",
      "minRecValue": "NA",
      "maxRecValue": "NA",
      "kind": "common",
      "options": [
        {
          "summary": "",
          "name": "STRICT"
        },
        {
          "summary": "",
          "name": "LENIENT"
        },
        {
          "summary": "",
          "name": "SILENT"
        }
      ]
    },
    {
      "summary": "Recover all dangling branches",
      "name": "--recover-all-dangling-branches",
      "synonyms": "NA",
      "type": "boolean",
      "required": "no",
      "fulltext": "By default, the read threading assembler does not recover dangling branches that fork after splitting from the reference.  This argument\n tells the assembly engine to recover all dangling branches.",
      "defaultValue": "false",
      "minValue": "NA",
      "maxValue": "NA",
      "minRecValue": "NA",
      "maxRecValue": "NA",
      "kind": "advanced",
      "options": []
    },
    {
      "summary": "Reference sequence file",
      "name": "--reference",
      "synonyms": "-R",
      "type": "String",
      "required": "yes",
      "fulltext": "",
      "defaultValue": "null",
      "minValue": "NA",
      "maxValue": "NA",
      "minRecValue": "NA",
      "maxRecValue": "NA",
      "kind": "required",
      "options": []
    },
    {
      "summary": "Output traversal statistics every time this many seconds elapse",
      "name": "--seconds-between-progress-updates",
      "synonyms": "-seconds-between-progress-updates",
      "type": "double",
      "required": "no",
      "fulltext": "",
      "defaultValue": "10.0",
      "minValue": "-Infinity",
      "maxValue": "Infinity",
      "minRecValue": "NA",
      "maxRecValue": "NA",
      "kind": "common",
      "options": []
    },
    {
      "summary": "Use the given sequence dictionary as the master/canonical sequence dictionary.  Must be a .dict file.",
      "name": "--sequence-dictionary",
      "synonyms": "-sequence-dictionary",
      "type": "String",
      "required": "no",
      "fulltext": "",
      "defaultValue": "null",
      "minValue": "NA",
      "maxValue": "NA",
      "minRecValue": "NA",
      "maxRecValue": "NA",
      "kind": "common",
      "options": []
    },
    {
      "summary": "display hidden arguments",
      "name": "--showHidden",
      "synonyms": "-showHidden",
      "type": "boolean",
      "required": "no",
      "fulltext": "",
      "defaultValue": "false",
      "minValue": "NA",
      "maxValue": "NA",
      "minRecValue": "NA",
      "maxRecValue": "NA",
      "kind": "advanced",
      "options": []
    },
    {
      "summary": "If true, don\u0027t emit genotype fields when writing vcf file output.",
      "name": "--sites-only-vcf-output",
      "synonyms": "NA",
      "type": "boolean",
      "required": "no",
      "fulltext": "",
      "defaultValue": "false",
      "minValue": "NA",
      "maxValue": "NA",
      "minRecValue": "NA",
      "maxRecValue": "NA",
      "kind": "optional",
      "options": []
    },
    {
      "summary": "Which Smith-Waterman implementation to use, generally FASTEST_AVAILABLE is the right choice",
      "name": "--smith-waterman",
      "synonyms": "NA",
      "type": "Implementation",
      "required": "no",
      "fulltext": "",
      "defaultValue": "JAVA",
      "minValue": "NA",
      "maxValue": "NA",
      "minRecValue": "NA",
      "maxRecValue": "NA",
      "kind": "advanced",
      "options": [
        {
          "summary": "use the fastest available Smith-Waterman aligner that runs on your hardware",
          "name": "FASTEST_AVAILABLE"
        },
        {
          "summary": "use the AVX enabled Smith-Waterman aligner",
          "name": "AVX_ENABLED"
        },
        {
          "summary": "use the pure java implementation of Smith-Waterman, works on all hardware",
          "name": "JAVA"
        }
      ]
    },
    {
      "summary": "Temp directory to use.",
      "name": "--tmp-dir",
      "synonyms": "NA",
      "type": "String",
      "required": "no",
      "fulltext": "",
      "defaultValue": "null",
      "minValue": "NA",
      "maxValue": "NA",
      "minRecValue": "NA",
      "maxRecValue": "NA",
      "kind": "common",
      "options": []
    },
    {
      "summary": "LOD threshold to emit variant to VCF.",
      "name": "--tumor-lod-to-emit",
      "synonyms": "-emit-lod",
      "type": "double",
      "required": "no",
      "fulltext": "Only variants with tumor LODs exceeding this threshold will be written to the VCF, regardless of filter status.\n Set to less than or equal to tumor_lod. Increase argument value to reduce false positives in the callset.\n Default setting of 3 is permissive and will emit some amount of negative training data that \n {@link FilterMutectCalls} should then filter.",
      "defaultValue": "3.0",
      "minValue": "-Infinity",
      "maxValue": "Infinity",
      "minRecValue": "NA",
      "maxRecValue": "NA",
      "kind": "optional",
      "options": []
    },
    {
      "summary": "BAM sample name of tumor.  May be URL-encoded as output by GetSampleName with -encode argument.",
      "name": "--tumor-sample",
      "synonyms": "-tumor",
      "type": "String",
      "required": "no",
      "fulltext": "",
      "defaultValue": "null",
      "minValue": "NA",
      "maxValue": "NA",
      "minRecValue": "NA",
      "maxRecValue": "NA",
      "kind": "deprecated",
      "options": []
    },
    {
      "summary": "Whether to use the JdkDeflater (as opposed to IntelDeflater)",
      "name": "--use-jdk-deflater",
      "synonyms": "-jdk-deflater",
      "type": "boolean",
      "required": "no",
      "fulltext": "",
      "defaultValue": "false",
      "minValue": "NA",
      "maxValue": "NA",
      "minRecValue": "NA",
      "maxRecValue": "NA",
      "kind": "common",
      "options": []
    },
    {
      "summary": "Whether to use the JdkInflater (as opposed to IntelInflater)",
      "name": "--use-jdk-inflater",
      "synonyms": "-jdk-inflater",
      "type": "boolean",
      "required": "no",
      "fulltext": "",
      "defaultValue": "false",
      "minValue": "NA",
      "maxValue": "NA",
      "minRecValue": "NA",
      "maxRecValue": "NA",
      "kind": "common",
      "options": []
    },
    {
      "summary": "Control verbosity of logging.",
      "name": "--verbosity",
      "synonyms": "-verbosity",
      "type": "LogLevel",
      "required": "no",
      "fulltext": "",
      "defaultValue": "INFO",
      "minValue": "NA",
      "maxValue": "NA",
      "minRecValue": "NA",
      "maxRecValue": "NA",
      "kind": "common",
      "options": [
        {
          "summary": "",
          "name": "ERROR"
        },
        {
          "summary": "",
          "name": "WARNING"
        },
        {
          "summary": "",
          "name": "INFO"
        },
        {
          "summary": "",
          "name": "DEBUG"
        }
      ]
    },
    {
      "summary": "display the version number for this tool",
      "name": "--version",
      "synonyms": "NA",
      "type": "boolean",
      "required": "no",
      "fulltext": "",
      "defaultValue": "false",
      "minValue": "NA",
      "maxValue": "NA",
      "minRecValue": "NA",
      "maxRecValue": "NA",
      "kind": "optional",
      "options": []
    }
  ],
  "description": "\u003cp\u003eCall somatic short mutations via local assembly of haplotypes.\n Short mutations include single nucleotide (SNA) and insertion and deletion (indel) alterations.\n The caller uses a Bayesian somatic genotyping model that differs from the original MuTect by\n \u003ca href\u003d\u0027http://www.nature.com/nbt/journal/v31/n3/full/nbt.2514.html\u0027\u003eCibulskis et al., 2013\u003c/a\u003e\n and uses the assembly-based machinery of\n \u003ca href\u003d\"https://software.broadinstitute.org/gatk/documentation/tooldocs/current/org_broadinstitute_hellbender_tools_walkers_haplotypecaller_HaplotypeCaller.php\"\u003eHaplotypeCaller\u003c/a\u003e.\n Of note, Mutect2 v4.1.0.0 onwards enables joint analysis of multiple samples.\u003c/p\u003e\n\n \u003cp\u003eThis tool is featured in the \u003ci\u003eSomatic Short Mutation calling Best Practice Workflow\u003c/i\u003e.\n See \u003ca href\u003d\"https://software.broadinstitute.org/gatk/documentation/article?id\u003d11136\"\u003eTutorial#11136\u003c/a\u003e for a\n step-by-step description of the workflow and \u003ca href\u003d\"https://software.broadinstitute.org/gatk/documentation/article?id\u003d11127\"\u003eArticle#11127\u003c/a\u003e\n for an overview of what traditional somatic calling entails. For the latest pipeline scripts, see the\n \u003ca href\u003d\"https://github.com/broadinstitute/gatk/tree/master/scripts/mutect2_wdl\"\u003eMutect2 WDL scripts directory\u003c/a\u003e.\n For pipelines with example data, see the \u003ca href\u003d\"https://github.com/gatk-workflows/gatk4-somatic-snvs-indels\"\u003egatk-workflows repository\u003c/a\u003e.\n Although we present the tool for somatic calling, it may apply to other contexts, such as mitochondrial variant calling and detection of somatic mosaicism.\u003c/p\u003e\n\n \u003cp\u003eStarting with v4.1.0.0 Mutect2 accomodates extreme high depths, e.g. 20,000X. See the following articles for details on this and additional applications.\n \u003cul\u003e\n   \u003cli\u003e\u003ca href\u003d\"https://software.broadinstitute.org/gatk/blog?id\u003d23400\"\u003eBlog#23400\u003c/a\u003e details general improvements to\n   Mutect2 v4.1.0.0.\u003c/li\u003e\n   \u003cli\u003e\u003ca href\u003d\"https://software.broadinstitute.org/gatk/blog?id\u003d23598\"\u003eBlog#23598\u003c/a\u003e details Mutect2 mitochondrial\n   mode.\u003c/li\u003e\n   \u003cli\u003e\u003ca href\u003d\"https://software.broadinstitute.org/gatk/blog?id\u003dXXX\"\u003eBlog#XXX\u003c/a\u003e (link to come) details use of Mutect2 in extremely\n   low allele fraction variant detection.\u003c/li\u003e\n \u003c/ul\u003e\u003c/p\u003e\n\n \u003ch3\u003eUsage examples\u003c/h3\u003e\n \u003cp\u003eExample commands show how to run Mutect2 for typical scenarios. The three modes are (i) tumor-normal mode where a\n tumor sample is matched with a normal sample in analysis, (ii) tumor-only mode where a single sample\u0027s alignment\n data undergoes analysis, and (iii) mitochondrial mode where sensitive calling at high depths is desirable.\n \u003cul\u003e\n     \u003cli\u003eAs of v4.1, there is no longer a need to specify the tumor sample name with -tumor. You need only specify\n     the normal sample name with \u003cnobr\u003e-normal,\u003c/nobr\u003e if you include a normal.\u003c/li\u003e\n     \u003cli\u003eStarting with v4.0.4.0, GATK recommends the default setting of --af-of-alleles-not-in-resource, which the\n     tool dynamically adjusts for different modes. tumor-only calling sets the default to 5e-8, tumor-normal calling\n     sets it to 1e-6 and mitochondrial mode sets it to 4e-3. For previous versions, the default was 0.001, the\n     average heterozygosity of humans. For other organisms, change --af-of-alleles-not-in-resource to\n     1/(ploidy*samples in resource).\u003c/li\u003e\n \u003c/ul\u003e\u003c/p\u003e\n\n \u003ch4\u003e(i) Tumor with matched normal\u003c/h4\u003e\n \u003cp\u003eGiven a matched normal, Mutect2 is designed to call somatic variants only. The tool includes logic to skip\n emitting variants that are clearly present in the germline based on provided evidence, e.g. in the matched normal.\n This is done at an early stage to avoid spending computational resources on germline events. If the variant\u0027s\n germline status is borderline, then Mutect2 will emit the variant to the callset for subsequent filtering by\n \u003ca href\u003d\"https://software.broadinstitute.org/gatk/documentation/tooldocs/current/org_broadinstitute_hellbender_tools_walkers_mutect_FilterMutectCalls.php\"\u003eFilterMutectCalls\u003c/a\u003e\n and review.\u003c/p\u003e\n\n \u003cpre\u003e\n     gatk Mutect2 \\\n     -R reference.fa \\\n     -I tumor.bam \\\n     -I normal.bam \\\n     -normal normal_sample_name \\\n     --germline-resource af-only-gnomad.vcf.gz \\\n     --panel-of-normals pon.vcf.gz \\\n     -O somatic.vcf.gz\n \u003c/pre\u003e\n\n \u003cp\u003e\n     Mutect2 also generates a stats file names [output vcf].stats.  That is, in the above example the stats file would be named somatic.vcf.gz.stats\n     and would be in the same folder as somatic.vcf.gz.  As of GATK 4.1.1 this file is a required input to FilterMutectCalls.\n \u003c/p\u003e\n\n \u003cp\u003e As of v4.1 Mutect2 supports joint calling of multiple tumor and normal samples from the same individual. The\n only difference is that -I and \u003cnobr\u003e-normal\u003c/nobr\u003e must be specified for the extra samples.\u003c/p\u003e\n\n \u003cpre\u003e\n     gatk Mutect2 \\\n     -R reference.fa \\\n     -I tumor1.bam \\\n     -I tumor2.bam \\\n     -I normal1.bam \\\n     -I normal2.bam \\\n     -normal normal1_sample_name \\\n     -normal normal2_sample_name \\\n     --germline-resource af-only-gnomad.vcf.gz \\\n     --panel-of-normals pon.vcf.gz \\\n     -O somatic.vcf.gz\n \u003c/pre\u003e\n\n \u003ch4\u003e(ii) Tumor-only mode\u003c/h4\u003e\n \u003cp\u003eThis mode runs on a single type of sample, e.g. the tumor or the normal.\n To create a PoN, call on each normal sample in this mode, then use\n \u003ca href\u003d\"https://software.broadinstitute.org/gatk/documentation/tooldocs/current/org_broadinstitute_hellbender_tools_walkers_mutect_CreateSomaticPanelOfNormals.php\"\u003eCreateSomaticPanelOfNormals\u003c/a\u003e\n to generate the PoN.\u003c/p\u003e\n\n \u003cpre\u003e\n  gatk Mutect2 \\\n   -R reference.fa \\\n   -I sample.bam \\\n   -O single_sample.vcf.gz\n \u003c/pre\u003e\n\n \u003cp\u003eTo call mutations on a tumor sample, call in this mode using a PoN and germline resource. After FilterMutectCalls\n filtering, consider additional filtering by functional significance with\n \u003ca href\u003d\"https://software.broadinstitute.org/gatk/documentation/tooldocs/current/org_broadinstitute_hellbender_tools_funcotator_Funcotator.php\"\u003eFuncotator\u003c/a\u003e.\u003c/p\u003e\n\n \u003cpre\u003e\n  gatk Mutect2 \\\n  -R reference.fa \\\n  -I sample.bam \\\n  --germline-resource af-only-gnomad.vcf.gz \\\n  --panel-of-normals pon.vcf.gz \\\n  -O single_sample.vcf.gz\n \u003c/pre\u003e\n\n \u003ch4\u003e(iii) Mitochondrial mode\u003c/h4\u003e\n \u003cp\u003eMutect2 automatically sets parameters appropriately for calling on mitochondria with the \u003cnobr\u003e--mitochondria\u003c/nobr\u003e flag.\n Specifically, the mode sets \u003cnobr\u003e–-initial-tumor-lod\u003c/nobr\u003e to 0, \u003cnobr\u003e–-tumor-lod-to-emit\u003c/nobr\u003e to 0, \u003cnobr\u003e--af-of-alleles-not-in-resource\u003c/nobr\u003e to\n 4e-3, and the advanced parameter \u003cnobr\u003e--pruning-lod-threshold\u003c/nobr\u003e to -4.\u003c/p\u003e\n\n \u003cpre\u003e\n  gatk Mutect2 \\\n  -R reference.fa \\\n  -L chrM \\\n  --mitochondria \\\n  --median-autosomal-coverage 30 \\\n  -I mitochondria.bam \\\n  -O mitochondria.vcf.gz\n \u003c/pre\u003e\n\n \u003cp\u003eSetting the advanced option --median-autosomal-coverage argument (default 0) activates a recommended filter against\n likely erroneously mapped  \u003ca href\u003d\"https://en.wikipedia.org/wiki/NUMT\"\u003eNuMTs (nuclear mitochondrial DNA segments)\u003c/a\u003e.\n For the value, provide the median coverage expected in autosomal regions with coverage.  The mode accepts only a\n single sample, which can be provided in multiple files.\u003c/p\u003e\n\n \u003ch4\u003e(iv) Force-calling mode\u003c/h4\u003e\n \u003cp\u003eThis mode force-calls all alleles in force-call-alleles.vcf in addition to any other variants Mutect2 discovers.\n\n \u003cpre\u003e\n  gatk Mutect2 \\\n   -R reference.fa \\\n   -I sample.bam \\\n   -alleles force-call-alleles.vcf\n   -O single_sample.vcf.gz\n \u003c/pre\u003e\n\n \u003cp\u003e\n     If the sample is suspected to exhibit orientation bias artifacts (such as in the case of FFPE tumor samples) one should also\n     collect F1R2 metrics by adding an --f1r2-tar-gz argument as shown below.  This file contains information that can then be passed\n     to LearnReadOrientationModel, which generate an artifact prior table for each tumor sample for FilterMutectCalls to use.\n\n \u003c/p\u003e\n\n \u003cpre\u003e\n gatk Mutect2 \\\n  -R reference.fa \\\n  -I sample.bam \\\n  --f1r2-tar-gz f1r2.tar.gz \\\n  -O single_sample.vcf.gz\n  \u003c/pre\u003e\n\n \u003ch3\u003eNotes\u003c/h3\u003e\n \u003col\u003e\n     \u003cli\u003eMutect2 does not require a germline resource nor a panel of normals (PoN) to run, although both are recommended. The tool prefilters sites\n     for the matched normal and the PoN.\n     \u003cli\u003eIf a variant is absent from a given germline\n     resource, then the value for --af-of-alleles-not-in-resource is used as an imputed allele frequency. Below is an excerpt of a known variants\n     resource with population allele frequencies.\n\n     \u003cpre\u003e\n     #CHROM  POS     ID      REF     ALT     QUAL    FILTER  INFO\n      1       10067   .       T       TAACCCTAACCCTAACCCTAACCCTAACCCTAACCCTAACCC      30.35   PASS    AC\u003d3;AF\u003d7.384E-5\n      1       10108   .       CAACCCT C       46514.32        PASS    AC\u003d6;AF\u003d1.525E-4\n      1       10109   .       AACCCTAACCCT    AAACCCT,*       89837.27        PASS    AC\u003d48,5;AF\u003d0.001223,1.273E-4\n      1       10114   .       TAACCCTAACCCTAACCCTAACCCTAACCCTAACCCCTAACCCTAACCCTAACCCTAACCCTAACCTAACCCTAACCCTAACCCTAACCCTAACCCTAACCCTAACCCTAACCCTAACCCCTAACCCTAACCCTAAACCCTA  *,CAACCCTAACCCTAACCCTAACCCTAACCCTAACCCCTAACCCTAACCCTAACCCTAACCCTAACCTAACCCTAACCCTAACCCTAACCCTAACCCTAACCCTAACCCTAACCCTAACCCCTAACCCTAACCCTAAACCCTA,T      36728.97        PASS    AC\u003d55,9,1;AF\u003d0.001373,2.246E-4,2.496E-5\n      1       10119   .       CT      C,*     251.23  PASS    AC\u003d5,1;AF\u003d1.249E-4,2.498E-5\n      1       10120   .       TA      CA,*    14928.74        PASS    AC\u003d10,6;AF\u003d2.5E-4,1.5E-4\n      1       10128   .       ACCCTAACCCTAACCCTAAC    A,*     285.71  PASS    AC\u003d3,1;AF\u003d7.58E-5,2.527E-5\n      1       10131   .       CT      C,*     378.93  PASS    AC\u003d7,5;AF\u003d1.765E-4,1.261E-4\n      1       10132   .       TAACCC  *,T     18025.11        PASS    AC\u003d12,2;AF\u003d3.03E-4,5.049E-5\n     \u003c/pre\u003e\n     \u003c/li\u003e\n\n \u003cli\u003eAdditional parameters that factor towards filtering are available in\n \u003ca href\u003d\"https://software.broadinstitute.org/gatk/documentation/tooldocs/current/org_broadinstitute_hellbender_tools_walkers_mutect_FilterMutectCalls.php\"\u003eFilterMutectCalls\u003c/a\u003e.\n While the tool calculates normal-lod assuming a diploid genotype, it calculates\n normal-artifact-lod with the same approach it uses for tumor-lod, i.e. with a variable ploidy assumption.\n\n \u003cul\u003e\n     \u003cli\u003eIf the normal artifact log odds becomes large, then FilterMutectCalls applies the artifact-in-normal filter..\u003c/li\u003e\n     \u003cli\u003eThe tumor log odds, which is calculated independently of any matched normal, determines whether to filter a tumor\n     variant. Variants with tumor LODs exceeding the threshold pass filtering.\u003c/li\u003e\n \u003c/ul\u003e\u003c/p\u003e\n\u003c/li\u003e\n \u003c/ol\u003e",
  "name": "Mutect2",
  "group": "Short Variant Discovery",
  "beta": false,
  "experimental": false
}